<?xml version="1.0" standalone="no"?>
<!DOCTYPE svg PUBLIC "-//W3C//DTD SVG 1.1//EN" "http://www.w3.org/Graphics/SVG/1.1/DTD/svg11.dtd" >
<!--
2015-11-3: Created.
-->
<svg xmlns="http://www.w3.org/2000/svg">
<metadata>
Created by FontForge 20120731 at Tue Nov  3 11:23:05 2015
 By root
Created by root with FontForge 2.0 (http://fontforge.sf.net)
</metadata>
<defs>
<font id="icons_mobiscroll" horiz-adv-x="512" >
  <font-face 
    font-family="icons_mobiscroll"
    font-weight="500"
    font-stretch="normal"
    units-per-em="512"
    panose-1="2 0 6 3 0 0 0 0 0 0"
    ascent="448"
    descent="-64"
    bbox="-0.405451 -64.25 528 448.405"
    underline-thickness="25.6"
    underline-position="-51.2"
    unicode-range="U+F100-F1BD"
  />
    <missing-glyph />
    <glyph glyph-name="uniF170" unicode="&#xf170;" horiz-adv-x="427" 
d="M213 215c13 0 24 -10 24 -23s-11 -23 -24 -23s-23 10 -23 23s10 23 23 23zM213 405c118 0 214 -95 214 -213s-96 -213 -214 -213s-213 95 -213 213s95 213 213 213zM260 145l81 175l-174 -81l-82 -175z" />
    <glyph glyph-name="uniF16F" unicode="&#xf16f;" horiz-adv-x="341" 
d="M128 21v342h85v-342h-85zM0 21v171h85v-171h-85zM256 256h85v-235h-85v235z" />
    <glyph glyph-name="uniF19E" unicode="&#xf19e;" 
d="M0 -64v512h256v-512h-256zM160 384v-64h64v64h-64zM160 256v-64h64v64h-64zM160 128v-64h64v64h-64zM32 384v-64h64v64h-64zM32 256v-64h64v64h-64zM32 128v-64h64v64h-64zM288 288h224v-32h-224v32zM288 -64v288h224v-288h-64v128h-96v-128h-64z" />
    <glyph glyph-name="uniF131" unicode="&#xf131;" horiz-adv-x="402" 
d="M110 238v-55c0 -8 -3 -15 -8 -20s-12 -8 -20 -8h-55c-8 0 -14 3 -19 8s-8 12 -8 20v55c0 8 3 14 8 19s11 8 19 8h55c8 0 15 -3 20 -8s8 -11 8 -19zM256 238v-55c0 -8 -3 -15 -8 -20s-11 -8 -19 -8h-55c-8 0 -15 3 -20 8s-8 12 -8 20v55c0 8 3 14 8 19s12 8 20 8h55
c8 0 14 -3 19 -8s8 -11 8 -19zM402 238v-55c0 -8 -3 -15 -8 -20s-11 -8 -19 -8h-55c-8 0 -14 3 -19 8s-8 12 -8 20v55c0 8 3 14 8 19s11 8 19 8h55c8 0 14 -3 19 -8s8 -11 8 -19z" />
    <glyph glyph-name="uniF178" unicode="&#xf178;" horiz-adv-x="405" 
d="M312 323l93 -131l-93 -131c-8 -11 -21 -18 -35 -18h-234c-24 0 -43 18 -43 42v214c0 24 19 42 43 42h234c14 0 27 -7 35 -18z" />
    <glyph glyph-name="uniF117" unicode="&#xf117;" 
d="M256 320c71 0 128 -57 128 -128s-57 -128 -128 -128s-128 57 -128 128s57 128 128 128zM256 112c44 0 80 36 80 80s-36 80 -80 80v-160zM256 32c18 0 32 -14 32 -32v-32c0 -18 -14 -32 -32 -32s-32 14 -32 32v32c0 18 14 32 32 32zM256 352c-18 0 -32 14 -32 32v32
c0 18 14 32 32 32s32 -14 32 -32v-32c0 -18 -14 -32 -32 -32zM480 224c18 0 32 -14 32 -32s-14 -32 -32 -32h-32c-18 0 -32 14 -32 32s14 32 32 32h32zM96 192c0 -18 -14 -32 -32 -32h-32c-18 0 -32 14 -32 32s14 32 32 32h32c18 0 32 -14 32 -32zM414 79l23 -23
c12 -12 12 -33 0 -45s-33 -12 -45 0l-23 23c-12 12 -12 33 0 45s33 12 45 0zM98 305l-23 23c-12 12 -12 33 0 45s33 12 45 0l23 -23c12 -12 12 -33 0 -45s-33 -12 -45 0zM414 305c-12 -12 -33 -12 -45 0s-12 33 0 45l23 23c12 12 33 12 45 0s12 -33 0 -45zM98 79
c12 12 33 12 45 0s12 -33 0 -45l-23 -23c-12 -12 -33 -12 -45 0s-12 33 0 45z" />
    <glyph glyph-name="uniF12E" unicode="&#xf12e;" 
d="M437 373c48 -48 75 -113 75 -181s-27 -133 -75 -181s-113 -75 -181 -75s-133 27 -181 75s-75 113 -75 181s27 133 75 181s113 75 181 75s133 -27 181 -75zM414 34c32 32 53 70 62 113c-7 -10 -14 -13 -18 9c-4 36 -37 13 -58 26c-22 -15 -71 28 -63 -21
c13 -22 70 30 42 -17c-18 -33 -66 -105 -60 -143c1 -55 -56 -11 -76 7c-13 36 -5 100 -39 118c-37 2 -70 4 -84 46c-9 30 9 75 41 82c47 29 64 -35 108 -36c14 14 51 19 54 35c-29 5 36 24 -3 35c-22 -3 -36 -22 -24 -39c-42 -10 -44 60 -84 38c-1 -35 -66 -11 -22 -4
c15 7 -25 25 -4 22c10 1 47 13 37 21c20 12 36 -29 55 1c14 23 -6 28 -23 16c-10 11 17 35 41 45c8 3 15 6 21 5c12 -14 35 -17 36 1c-30 14 -63 22 -97 22c-49 0 -96 -15 -134 -44c10 -5 17 -10 7 -18c-8 -23 -39 -54 -67 -50c-14 -25 -24 -52 -28 -80c23 -8 29 -23 24 -28
c-12 -10 -19 -25 -23 -41c8 -46 29 -87 63 -121c42 -42 98 -66 158 -66s116 24 158 66v0z" />
    <glyph glyph-name="uniF12A" unicode="&#xf12a;" 
d="M448 448l64 -64v-448h-512v512h448zM256 384v-128h64v128h-64zM448 0v357l-27 27h-37v-160h-288v160h-32v-384h384z" />
    <glyph glyph-name="uniF122" unicode="&#xf122;" 
d="M445 268h1c38 -9 66 -44 66 -85c0 -48 -39 -87 -87 -87h-60l-109 -109l-109 109h-50c-54 0 -97 43 -97 97s43 97 97 97c6 0 11 -1 17 -2c0 3 -1 7 -1 10c0 37 30 67 67 67c22 0 41 -10 53 -26c22 28 56 45 94 45c65 0 116 -52 118 -116zM256 32l96 96h-64v96h-64v-96h-64
z" />
    <glyph glyph-name="uniF13F" unicode="&#xf13f;" horiz-adv-x="384" 
d="M281 219c3 0 5 -2 5 -5v-44c0 -3 -2 -5 -5 -5h-178c-3 0 -5 2 -5 5v44c0 3 2 5 5 5h178zM192 333c-78 0 -141 -63 -141 -141s63 -141 141 -141s141 63 141 141s-63 141 -141 141zM192 384v0c106 0 192 -86 192 -192s-86 -192 -192 -192s-192 86 -192 192s86 192 192 192z
" />
    <glyph glyph-name="uniF185" unicode="&#xf185;" horiz-adv-x="299" 
d="M256 426c24 0 43 -18 43 -42v-384c0 -24 -19 -43 -43 -43h-213c-24 0 -43 19 -43 43v384c0 24 19 43 43 43zM256 43v298h-213v-298h213zM235 171l-86 -86l-85 86h64v106h43v-106h64z" />
    <glyph glyph-name="uniF14D" unicode="&#xf14d;" horiz-adv-x="416" 
d="M355 339c81 -81 81 -213 0 -294s-213 -81 -294 0s-81 213 0 294s213 81 294 0zM343 57c74 74 74 196 0 270s-196 74 -270 0s-74 -196 0 -270s196 -74 270 0zM292 288l12 -12l-84 -84l84 -84l-12 -12l-84 84l-84 -84l-12 12l84 84l-84 84l12 12l84 -84z" />
    <glyph glyph-name="uniF14F" unicode="&#xf14f;" horiz-adv-x="416" 
d="M184 276c0 13 7 20 20 20s20 -7 20 -20s-7 -20 -20 -20s-20 7 -20 20zM224 104h16v-8h-64v8h16v120h-16v8h48v-128zM208 400c57 0 106 -20 147 -61s61 -90 61 -147s-20 -106 -61 -147s-90 -61 -147 -61s-106 20 -147 61s-61 90 -61 147s20 106 61 147s90 61 147 61z
M208 1c53 0 98 19 135 56s56 82 56 135s-19 98 -56 135s-82 56 -135 56s-98 -19 -135 -56s-56 -82 -56 -135s19 -98 56 -135s82 -56 135 -56z" />
    <glyph glyph-name="uniF190" unicode="&#xf190;" 
d="M400 384c62 0 112 -50 112 -112s-50 -112 -112 -112c-14 0 -27 2 -40 7c-29 -25 -65 -39 -104 -39c-38 0 -75 14 -104 39c-13 -5 -26 -7 -40 -7c-62 0 -112 50 -112 112s50 112 112 112c5 0 11 0 16 -1c30 41 77 65 128 65s98 -24 128 -65c5 1 11 1 16 1zM400 192
c44 0 80 36 80 80s-36 80 -80 80c-11 0 -21 -2 -30 -6c-21 41 -64 70 -114 70s-93 -29 -114 -70c-9 4 -19 6 -30 6c-44 0 -80 -36 -80 -80s36 -80 80 -80c17 0 33 6 46 15c23 -28 58 -47 98 -47s75 19 98 47c13 -9 29 -15 46 -15zM225 -32c0 18 32 64 32 64s32 -46 32 -64
s-14 -32 -32 -32s-32 14 -32 32zM352 0c0 18 32 64 32 64s32 -46 32 -64s-14 -32 -32 -32s-32 14 -32 32zM96 64c0 18 32 64 32 64s32 -46 32 -64s-14 -32 -32 -32s-32 14 -32 32z" />
    <glyph glyph-name="uniF191" unicode="&#xf191;" 
d="M326 4v0c8 -5 12 -16 7 -24s-17 -11 -25 -6l-18 10c-5 -4 -10 -7 -16 -9v-21c0 -10 -8 -18 -18 -18s-18 8 -18 18v21c-6 2 -11 5 -16 9l-18 -10c-8 -5 -19 -2 -24 6s-2 19 6 24l18 11c-1 3 -1 6 -1 9s0 7 1 10l-18 10c-8 5 -11 16 -6 24s16 12 24 7l18 -11
c5 4 10 8 16 10v21c0 10 8 18 18 18s18 -8 18 -18v-21c6 -2 11 -6 16 -10l18 11c8 5 20 1 25 -7s1 -19 -7 -24l-18 -10c1 -3 1 -7 1 -10s0 -6 -1 -9zM256 7c10 0 18 7 18 17s-8 18 -18 18s-18 -8 -18 -18s8 -17 18 -17zM400 384c62 0 112 -50 112 -112s-50 -112 -112 -112
c-14 0 -27 2 -40 7c-29 -25 -65 -39 -104 -39c-38 0 -75 14 -104 39c-13 -5 -26 -7 -40 -7c-62 0 -112 50 -112 112s50 112 112 112c5 0 11 0 16 -1c30 41 77 65 128 65s98 -24 128 -65c5 1 11 1 16 1zM400 192c44 0 80 36 80 80s-36 80 -80 80c-11 0 -21 -2 -30 -6
c-21 41 -64 70 -114 70s-93 -29 -114 -70c-9 4 -19 6 -30 6c-44 0 -80 -36 -80 -80s36 -80 80 -80c17 0 33 6 46 15c23 -28 58 -47 98 -47s75 19 98 47c13 -9 29 -15 46 -15z" />
    <glyph glyph-name="uniF199" unicode="&#xf199;" 
d="M417 377c53 -2 95 -46 95 -99c0 -55 -45 -100 -100 -100c-6 0 -11 0 -17 1c-21 -14 -45 -20 -70 -20s-48 6 -69 20c-6 -1 -12 -1 -18 -1c-55 0 -99 45 -99 100c0 53 42 97 95 99c24 25 56 39 91 39s68 -14 92 -39zM144 191c9 0 16 -7 16 -16s-7 -16 -16 -16h-128
c-9 0 -16 7 -16 16s7 16 16 16h128zM16 223c-9 0 -16 7 -16 16s7 16 16 16h64c9 0 16 -7 16 -16s-7 -16 -16 -16h-64zM48 287c-9 0 -16 7 -16 16s7 16 16 16h64c9 0 16 -7 16 -16s-7 -16 -16 -16h-64zM224 64c0 18 32 64 32 64s32 -46 32 -64s-14 -32 -32 -32s-32 14 -32 32
zM352 0c0 18 32 64 32 64s32 -46 32 -64s-14 -32 -32 -32s-32 14 -32 32z" />
    <glyph glyph-name="uniF17B" unicode="&#xf17b;" horiz-adv-x="384" 
d="M0 64v43h384v-43h-384zM0 171v42h384v-42h-384zM0 320h384v-43h-384v43z" />
    <glyph glyph-name="uniF17D" unicode="&#xf17d;" horiz-adv-x="235" 
d="M0 341l235 -149l-235 -149v298z" />
    <glyph glyph-name="uniF157" unicode="&#xf157;" 
d="M256 336c4 0 8 -4 8 -8s-4 -8 -8 -8c-85 0 -160 -45 -160 -96c0 -4 -4 -8 -8 -8s-8 4 -8 8c0 61 81 112 176 112zM256 416c141 0 256 -86 256 -192s-115 -192 -256 -192c-17 0 -33 2 -49 4c-11 -13 -58 -60 -108 -68h-5c-8 0 -14 6 -14 14c0 2 0 4 1 6v0
c9 16 31 47 31 76v1c-68 35 -112 93 -112 159c0 106 115 192 256 192zM256 64c124 0 224 72 224 160s-101 160 -224 160c-124 0 -224 -72 -224 -160c0 -51 36 -100 95 -130c11 -5 17 -17 17 -29v-3c0 -17 -5 -33 -11 -47c23 14 42 33 49 41c6 7 15 12 25 12c2 0 2 -1 4 -1
c15 -2 30 -3 45 -3z" />
    <glyph glyph-name="uniF182" unicode="&#xf182;" horiz-adv-x="427" 
d="M213 80l-132 -80l35 150l-116 101l153 13l60 141l60 -141l154 -13l-117 -101l35 -150z" />
    <glyph glyph-name="uniF173" unicode="&#xf173;" horiz-adv-x="384" 
d="M341 384c24 0 43 -19 43 -43v-298c0 -24 -19 -43 -43 -43h-299c-24 0 -42 19 -42 43v298c0 24 18 43 42 43h299zM341 128v213h-299v-213h86c0 -35 29 -64 64 -64s64 29 64 64h85zM277 235l-85 -86l-85 86h42v64h86v-64h42z" />
    <glyph glyph-name="uniF166" unicode="&#xf166;" horiz-adv-x="320" 
d="M160 448c88 0 160 -72 160 -160c0 -160 -160 -352 -160 -352s-160 192 -160 352c0 88 72 160 160 160zM160 192c53 0 96 43 96 96s-43 96 -96 96s-96 -43 -96 -96s43 -96 96 -96z" />
    <glyph glyph-name="uniF1B1" unicode="&#xf1b1;" horiz-adv-x="416" 
d="M224 351c107 -8 192 -98 192 -207c0 -115 -93 -208 -208 -208s-208 93 -208 208c0 109 85 199 192 207v33h-64v32c0 18 14 32 32 32h96c18 0 32 -14 32 -32v-32h-64v-33zM321 31v0c30 30 47 70 47 113s-17 83 -47 113c-29 29 -67 46 -108 47l11 -157
c1 -13 -6 -19 -16 -19s-17 6 -16 19l11 157c-41 -1 -79 -18 -108 -47c-30 -30 -47 -70 -47 -113s17 -83 47 -113s70 -47 113 -47s83 17 113 47z" />
    <glyph glyph-name="uniF13C" unicode="&#xf13c;" 
d="M0 288h512l-32 -320h-448zM464 352l16 -32h-448l32 64h176l16 -32h208z" />
    <glyph glyph-name="uniF138" unicode="&#xf138;" 
d="M68 73c38 0 68 -32 68 -69c0 -38 -30 -67 -68 -67s-68 29 -68 67c0 37 30 69 68 69zM0 274v0c186 0 338 -152 338 -338h-99c0 64 -25 125 -70 170s-105 70 -169 70v98zM0 448c282 0 512 -230 512 -512h-98c0 228 -186 414 -414 414v98z" />
    <glyph glyph-name="uniF163" unicode="&#xf163;" 
d="M498 -5c12 -8 17 -23 13 -36c-4 -14 -17 -23 -31 -23h-448c-14 0 -27 9 -31 23c-4 13 1 28 13 36c3 2 62 40 149 59c-32 40 -52 95 -61 131c-12 50 -8 148 40 209c28 36 68 54 114 54s86 -18 114 -54c48 -61 52 -159 40 -209c-9 -36 -29 -91 -61 -131
c87 -19 146 -57 149 -59zM324 74c45 56 66 131 57 202c-9 68 -48 140 -125 140s-116 -72 -125 -140c-10 -71 12 -146 57 -202l5 -7c38 -44 88 -44 126 0zM32 -32h448c-3 2 -57 38 -137 55l-40 8c-14 -9 -30 -15 -47 -15s-33 6 -47 15l-40 -8c-81 -18 -135 -54 -137 -55z" />
    <glyph glyph-name="uniF192" unicode="&#xf192;" 
d="M326 4v0c8 -5 12 -16 7 -24s-17 -11 -25 -6l-18 10c-5 -4 -10 -7 -16 -9v-21c0 -10 -8 -18 -18 -18s-18 8 -18 18v21c-6 2 -11 5 -16 9l-18 -10c-8 -5 -19 -2 -24 6s-2 19 6 24l18 11c-1 3 -1 6 -1 9s0 7 1 10l-18 10c-8 5 -11 16 -6 24s16 12 24 7l18 -11
c5 4 10 8 16 10v21c0 10 8 18 18 18s18 -8 18 -18v-21c6 -2 11 -6 16 -10l18 11c8 5 20 1 25 -7s1 -19 -7 -24l-18 -10c1 -3 1 -7 1 -10s0 -6 -1 -9zM256 7c10 0 18 7 18 17s-8 18 -18 18s-18 -8 -18 -18s8 -17 18 -17zM474 52v0c6 -2 10 -7 8 -13c-1 -6 -7 -10 -13 -8
l-12 4c-1 -2 -3 -4 -4 -5s-2 -2 -4 -3l3 -12c2 -6 -2 -11 -8 -13s-10 1 -12 7l-4 12c-4 0 -8 1 -11 3l-8 -9c-4 -4 -11 -4 -15 0s-4 11 0 15l9 9c-2 4 -3 7 -3 11l-12 3c-6 2 -10 7 -8 13s7 9 13 7l12 -3c1 2 3 4 4 5s2 2 4 3l-3 12c-1 6 1 11 7 13s11 -1 13 -7l3 -12
c4 0 8 -1 11 -3l9 9c4 4 11 4 15 0s4 -11 0 -15l-9 -9c2 -4 3 -7 3 -11zM438 45c4 4 4 11 0 15s-11 4 -15 0s-4 -11 0 -15s11 -4 15 0zM119 106v0c6 1 11 -2 13 -8s-2 -11 -8 -13l-12 -3c0 -4 -1 -8 -3 -11l9 -9c4 -4 4 -11 0 -15s-11 -4 -15 0l-8 9c-4 -2 -7 -3 -11 -3
l-4 -12c-2 -6 -6 -9 -12 -7c-6 1 -10 7 -8 13l3 12c-2 1 -3 2 -4 3s-3 3 -4 5l-12 -4c-6 -1 -11 2 -13 8s2 11 8 13l12 3c0 4 1 7 3 11l-9 9c-4 4 -4 11 0 15s11 4 15 0l9 -9c3 2 7 3 11 3l3 12c2 6 7 9 13 7c6 -1 9 -7 7 -13l-3 -12c2 -1 3 -2 4 -3s3 -3 4 -5zM89 77
c4 4 4 11 0 15s-11 4 -15 0s-4 -11 0 -15s11 -4 15 0zM512 272c0 -62 -50 -112 -112 -112c-14 0 -27 2 -40 7c-29 -25 -65 -39 -104 -39c-38 0 -75 14 -104 39c-13 -5 -26 -7 -40 -7c-62 0 -112 50 -112 112s50 112 112 112c5 0 11 0 16 -1c30 41 77 65 128 65
s98 -24 128 -65c5 1 11 1 16 1c62 0 112 -50 112 -112zM354 207c13 -9 29 -15 46 -15c44 0 80 36 80 80s-36 80 -80 80c-11 0 -21 -2 -30 -6c-21 41 -64 70 -114 70s-93 -29 -114 -70c-9 4 -19 6 -30 6c-44 0 -80 -36 -80 -80s36 -80 80 -80c17 0 33 6 46 15
c23 -28 58 -47 98 -47s75 19 98 47z" />
    <glyph glyph-name="uniF14C" unicode="&#xf14c;" horiz-adv-x="192" 
d="M180 288l12 -12l-84 -84l84 -84l-12 -12l-84 84l-84 -84l-12 12l84 84l-84 84l12 12l84 -84z" />
    <glyph glyph-name="uniF125" unicode="&#xf125;" 
d="M256 448c141 0 256 -115 256 -256s-115 -256 -256 -256s-256 115 -256 256s115 256 256 256zM256 -16c115 0 208 93 208 208s-93 208 -208 208s-208 -93 -208 -208s93 -208 208 -208zM304 240l80 -144v-32h-32l-144 80l-80 144v32h32zM256 160c18 0 32 14 32 32
s-14 32 -32 32s-32 -14 -32 -32s14 -32 32 -32z" />
    <glyph glyph-name="uniF158" unicode="&#xf158;" 
d="M469 400c24 0 43 -19 43 -43v-378c0 -24 -19 -43 -43 -43h-426c-24 0 -43 19 -43 43v378c0 24 19 43 43 43h69v32c0 9 7 16 16 16s16 -7 16 -16v-32h96v32c0 9 7 16 16 16s16 -7 16 -16v-32h96v32c0 9 7 16 16 16s16 -7 16 -16v-32h69zM480 -21v378c0 6 -5 11 -11 11h-69
v-32c0 -9 -7 -16 -16 -16s-16 7 -16 16v32h-96v-32c0 -9 -7 -16 -16 -16s-16 7 -16 16v32h-96v-32c0 -9 -7 -16 -16 -16s-16 7 -16 16v32h-69c-6 0 -11 -5 -11 -11v-378c0 -6 5 -11 11 -11h426c6 0 11 5 11 11zM112 256h64v-48h-64v48zM112 176h64v-48h-64v48zM112 96h64
v-48h-64v48zM224 96h64v-48h-64v48zM224 176h64v-48h-64v48zM224 256h64v-48h-64v48zM336 96h64v-48h-64v48zM336 176h64v-48h-64v48zM336 256h64v-48h-64v48z" />
    <glyph glyph-name="uniF119" unicode="&#xf119;" 
d="M484 47c0 -20 11 -37 28 -46v-7c-5 -1 -9 -1 -14 -1c-30 0 -58 13 -77 33c-12 -3 -24 -5 -37 -5c-71 0 -128 51 -128 114s57 114 128 114s128 -51 128 -114c0 -25 -9 -47 -24 -66c-3 -7 -4 -14 -4 -22v0zM228 448c124 0 224 -80 227 -180c-22 10 -46 15 -71 15
c-42 0 -83 -15 -113 -42c-31 -28 -49 -66 -49 -106c0 -20 5 -39 13 -57h-7c-12 0 -24 1 -36 2c-49 -49 -108 -57 -164 -58v11c30 15 57 43 57 74c0 4 0 8 -1 12c-51 34 -84 86 -84 144c0 102 102 185 228 185z" />
    <glyph glyph-name="uniF179" unicode="&#xf179;" horiz-adv-x="427" 
d="M213 405c118 0 214 -95 214 -213s-96 -213 -214 -213s-213 95 -213 213s95 213 213 213zM361 277c-20 35 -53 63 -92 76c13 -24 22 -49 29 -76h63zM213 362c-18 -26 -31 -54 -40 -85h81c-9 31 -23 59 -41 85zM48 149h72c-2 14 -3 28 -3 43s1 29 3 43h-72
c-4 -14 -5 -28 -5 -43s1 -29 5 -43zM66 107c20 -35 53 -63 92 -76c-13 24 -22 49 -29 76h-63zM129 277c7 27 16 52 29 76c-39 -13 -72 -41 -92 -76h63zM213 22c18 26 32 54 41 85h-81c9 -31 22 -59 40 -85zM263 149c2 14 4 28 4 43s-2 29 -4 43h-100c-2 -14 -3 -28 -3 -43
s1 -29 3 -43h100zM269 31c39 13 71 41 92 76h-63c-7 -27 -16 -52 -29 -76zM306 149h72c4 14 6 28 6 43s-2 29 -6 43h-72c2 -14 3 -28 3 -43s-1 -29 -3 -43z" />
    <glyph glyph-name="uniF140" unicode="&#xf140;" horiz-adv-x="448" 
d="M354 288v0h94v-128h-32v-224h-384v224h-32v128h109c-13 7 -26 16 -36 26c-29 29 -32 73 -7 98c11 11 26 17 42 17c19 0 40 -8 56 -24c30 -30 45 -75 53 -108c10 33 30 79 63 112c21 21 46 33 71 33c17 0 33 -6 44 -17c14 -14 20 -35 16 -58c-4 -21 -15 -40 -32 -57
c-8 -8 -16 -16 -25 -22zM305 384v0c-28 -28 -45 -67 -54 -96h26c26 10 55 25 77 47c21 21 29 52 16 65c-5 5 -14 6 -19 6c-15 0 -32 -8 -46 -22zM85 368c1 -10 6 -20 14 -28c17 -17 44 -32 78 -41h2v2c-9 34 -24 61 -41 78c-9 9 -19 14 -30 14v0c-5 0 -12 -1 -17 -6
c-6 -6 -6 -14 -6 -19zM192 -32v208h-128v-208h128zM192 192v64h-160v-64h160zM384 -32v208h-128v-208h128zM416 192v64h-160v-64h160z" />
    <glyph glyph-name="uniF124" unicode="&#xf124;" 
d="M182 87v0c3 -5 5 -11 7 -17l35 -6v-32l-35 -6c-2 -6 -4 -12 -7 -17l21 -29l-23 -23l-29 21c-5 -3 -11 -5 -17 -7l-6 -35h-32l-6 35c-6 2 -12 4 -17 7l-29 -21l-23 23l21 29c-3 5 -5 11 -7 17l-35 6v32l35 6c2 6 4 12 7 17l-21 29l23 23l29 -21c5 3 11 5 17 7l6 35h32
l6 -35c6 -2 12 -4 17 -7l29 21l22 -23zM112 16c18 0 32 14 32 32s-14 32 -32 32s-32 -14 -32 -32s14 -32 32 -32zM512 256l-34 -6c-1 -4 -1 -8 -2 -12l29 -19l-13 -29l-33 7c-2 -3 -5 -7 -7 -10l20 -28l-23 -23l-28 20c-3 -2 -7 -5 -10 -7l7 -33l-29 -13l-19 29
c-4 -1 -8 -1 -12 -2l-6 -34h-32l-6 34c-4 1 -8 1 -12 2l-19 -29l-29 13l7 33c-3 2 -7 5 -10 7l-28 -20l-23 23l20 28c-2 3 -5 7 -7 10l-33 -7l-13 29l29 19c-1 4 -1 8 -2 12l-34 6v32l34 6c1 4 1 8 2 12l-29 19l13 29l33 -7c2 3 5 7 7 10l-20 28l23 23l28 -20c3 2 7 5 10 7
l-7 33l29 13l19 -29c4 1 8 1 12 2l6 34h32l6 -34c4 -1 8 -1 12 -2l19 29l29 -13l-7 -33c3 -2 7 -5 10 -7l28 20l23 -23l-20 -28c2 -3 5 -7 7 -10l33 7l13 -29l-29 -19c1 -4 1 -8 2 -12l34 -6v-32zM336 202c38 0 70 32 70 70s-32 70 -70 70s-70 -32 -70 -70s32 -70 70 -70z
" />
    <glyph glyph-name="uniF1BC" unicode="&#xf1bc;" horiz-adv-x="440" 
d="M360 32c-6 0 -12 2 -17 7c-9 9 -9 25 0 34c66 66 66 172 0 238c-9 9 -9 25 0 34s25 9 34 0c41 -41 63 -95 63 -153s-22 -112 -63 -153c-5 -5 -11 -7 -17 -7v0zM275 77c-6 0 -12 3 -17 8c-9 9 -9 24 0 33c41 41 41 107 0 148c-9 9 -9 24 0 33s24 9 33 0
c59 -59 59 -156 0 -215c-5 -5 -11 -7 -17 -7h1zM201 409c13 13 23 8 23 -10v-414c0 -18 -10 -23 -23 -10l-121 121h-80v192h80l121 121v0z" />
    <glyph glyph-name="uniF1B9" unicode="&#xf1b9;" 
d="M224 160v128h-96l128 128l128 -128h-96v-128h-64zM320 232l192 -72v-128l-256 -96l-256 96v128l192 72v-49l-147 -55l211 -79l211 79l-147 55v49z" />
    <glyph glyph-name="uniF1A7" unicode="&#xf1a7;" horiz-adv-x="448" 
d="M64 -64l-32 352h384l-32 -352h-320zM288 384h160v-96l-32 32h-384l-32 -32v96h160v64h128v-64zM256 384v32h-64v-32h64z" />
    <glyph glyph-name="uniF16C" unicode="&#xf16c;" horiz-adv-x="375" 
d="M119 103l226 226l30 -30l-256 -256l-119 119l30 30z" />
    <glyph glyph-name="uniF1B6" unicode="&#xf1b6;" horiz-adv-x="462" 
d="M30 224c-36 0 -16 96 16 96c-16 0 0 80 32 80c0 32 32 48 64 48c135 0 88 -34 224 -48v-256c-120 -36 -240 -127 -240 -208c-26 0 -96 32 0 192h-96c-48 0 -32 96 0 96zM398 144v256h-32v16h64c18 0 32 -22 32 -48v-192c0 -26 -14 -48 -32 -48h-64v16h32z" />
    <glyph glyph-name="uniF14A" unicode="&#xf14a;" horiz-adv-x="416" 
d="M19 299c-4 2 -11 7 -13 11c-3 8 1 10 12 10h191h191c11 0 15 -2 12 -10c-2 -4 -9 -9 -13 -11c-11 -6 -163 -89 -169 -92s-12 -4 -21 -4s-15 1 -21 4s-158 86 -169 92zM408 295c9 4 8 -1 8 -5v-205c0 -9 -12 -21 -22 -21h-185h-185c-10 0 -24 12 -24 21v205s0 9 9 5
c8 -4 83 -56 132 -88l-83 -93c-2 -2 -2 -4 -1 -5s4 -1 6 1l98 83c15 -10 25 -16 27 -17c8 -4 14 -4 21 -4s13 0 21 4c2 1 12 7 27 17l98 -83c2 -2 5 -2 6 -1s0 3 -2 5l-82 93c49 32 123 84 131 88z" />
    <glyph glyph-name="uniF115" unicode="&#xf115;" 
d="M0 32h512v-64h-512v64zM64 160h64v-96h-64v96zM160 288h64v-224h-64v224zM256 192h64v-128h-64v128zM352 384h64v-320h-64v320z" />
    <glyph glyph-name="uniF17F" unicode="&#xf17f;" horiz-adv-x="341" 
d="M140 252l-30 -30l-110 110l30 31zM224 363h117v-118l-43 44l-268 -268l-30 31l268 267zM231 162l67 -67l43 44v-118h-117l44 44l-67 67z" />
    <glyph glyph-name="uniF160" unicode="&#xf160;" 
d="M510 247c4 -13 1 -26 -9 -36l-97 -98l22 -135c2 -14 -3 -27 -15 -35c-6 -4 -14 -7 -21 -7c-6 0 -12 1 -18 4l-116 63l-116 -63c-6 -3 -12 -4 -18 -4c-7 0 -15 3 -21 7c-12 8 -18 21 -16 35l23 135l-97 98c-10 10 -13 23 -9 36s15 22 29 24l134 20l58 120
c6 13 19 21 33 21s27 -8 33 -21l58 -120l134 -20c14 -2 25 -11 29 -24zM377 138l98 98l-133 19c-12 2 -23 10 -28 21l-58 120l-58 -120c-5 -11 -16 -18 -28 -20l-133 -20l98 -98c8 -8 12 -20 10 -31l-23 -135l116 63c6 3 12 4 18 4s12 -1 18 -4l116 -63l-23 135
c-2 11 2 23 10 31z" />
    <glyph glyph-name="uniF141" unicode="&#xf141;" horiz-adv-x="480" 
d="M240 416c133 0 240 -107 240 -240s-107 -240 -240 -240s-240 107 -240 240s107 240 240 240zM376 96h56c9 20 13 42 15 64h-63c-1 -22 -4 -44 -8 -64zM104 256h-56c-9 -20 -13 -42 -15 -64h63c1 22 4 44 8 64zM343 256h-87v-64h96c-1 22 -4 44 -9 64zM256 288v0h78
c-5 15 -13 29 -20 41c-11 18 -23 33 -36 42c-7 5 -15 9 -22 11v-94zM166 329v0c-7 -12 -15 -26 -20 -41h78v94c-7 -2 -15 -6 -22 -11c-13 -9 -25 -24 -36 -42zM224 256h-87c-5 -20 -8 -42 -9 -64h96v64zM48 96h56c-4 20 -7 42 -8 64h-63c2 -22 6 -44 15 -64zM128 160
c1 -22 4 -44 9 -64h87v64h-96zM224 64v0h-78c5 -15 13 -29 20 -41c11 -18 23 -33 36 -42c7 -5 15 -9 22 -11v94zM314 23v0c7 12 15 26 20 41h-78v-94c7 2 15 6 22 11c13 9 25 24 36 42zM256 96h87c5 20 8 42 9 64h-96v-64zM384 192h63c-2 22 -6 44 -15 64h-56
c4 -20 7 -42 8 -64zM415 288c-8 13 -17 24 -28 35c-17 17 -36 31 -57 41c15 -21 28 -47 37 -76h48zM93 323c-11 -11 -20 -22 -28 -35h48c9 29 22 55 37 76c-21 -10 -40 -24 -57 -41zM65 64c8 -13 17 -24 28 -35c17 -17 36 -31 57 -41c-15 21 -28 47 -37 76h-48zM387 29
c11 11 20 22 28 35h-48c-9 -29 -22 -55 -37 -76c21 10 40 24 57 41z" />
    <glyph glyph-name="uniF17C" unicode="&#xf17c;" horiz-adv-x="256" 
d="M0 43v298h85v-298h-85zM171 341h85v-298h-85v298z" />
    <glyph glyph-name="uniF1A2" unicode="&#xf1a2;" 
d="M491 368c14 -54 21 -113 21 -176s-7 -122 -21 -176c-72 -10 -152 -16 -235 -16s-163 6 -235 16c-14 54 -21 113 -21 176s7 122 21 176c72 10 152 16 235 16s163 -6 235 -16zM192 96l160 96l-160 96v-192z" />
    <glyph glyph-name="uniF156" unicode="&#xf156;" 
d="M256 448l256 -160h-512zM400 256h96l-16 -32v-192h-64v192zM272 256h96l-16 -32v-192h-64v192zM144 256h96l-16 -32v-192h-64v192zM16 256h96l-16 -32v-192h-64v192zM16 0h480l16 -64h-512zM288 352c0 18 -14 32 -32 32s-32 -14 -32 -32s14 -32 32 -32s32 14 32 32z" />
    <glyph glyph-name="uniF1AB" unicode="&#xf1ab;" 
d="M256 448c141 0 256 -115 256 -256s-115 -256 -256 -256s-256 115 -256 256s115 256 256 256zM352 320c-18 0 -32 -14 -32 -32s14 -32 32 -32s32 14 32 32s-14 32 -32 32zM160 320c-18 0 -32 -14 -32 -32s14 -32 32 -32s32 14 32 32s-14 32 -32 32zM256 32
c58 0 109 31 137 78l-41 24c-20 -33 -55 -54 -96 -54s-76 21 -96 54l-41 -24c28 -47 79 -78 137 -78z" />
    <glyph glyph-name="uniF16B" unicode="&#xf16b;" 
d="M469 384c24 0 43 -19 43 -43v-298c0 -24 -19 -43 -43 -43h-320c-15 0 -26 8 -34 19l-115 173l115 173c8 11 19 19 34 19h320zM405 116l-76 76l76 76l-30 31l-76 -77l-77 77l-30 -31l76 -76l-76 -76l30 -31l77 77l76 -77z" />
    <glyph glyph-name="uniF12B" unicode="&#xf12b;" 
d="M256 160l-128 128h96v128h64v-128h96zM372 212l140 -52v-128l-256 -96l-256 96v128l140 52l36 -36l-131 -48l211 -79l211 79l-131 48z" />
    <glyph glyph-name="uniF145" unicode="&#xf145;" 
d="M512 153l-256 199l-256 -199v81l256 199l256 -199v-81zM448 160v-192h-128v128h-128v-128h-128v192l192 144z" />
    <glyph glyph-name="uniF11B" unicode="&#xf11b;" horiz-adv-x="480" 
d="M160 256h64v-64h-64v64zM256 256h64v-64h-64v64zM352 256h64v-64h-64v64zM64 64h64v-64h-64v64zM160 64h64v-64h-64v64zM256 64h64v-64h-64v64zM160 160h64v-64h-64v64zM256 160h64v-64h-64v64zM352 160h64v-64h-64v64zM64 160h64v-64h-64v64zM416 448h64v-512h-480v512
h64v-32h64v32h224v-32h64v32zM448 -32v352h-416v-352h416z" />
    <glyph glyph-name="uniF18E" unicode="&#xf18e;" horiz-adv-x="408" 
d="M107 169v0v112h35v-176h-32l-44 66l-29 45h-2v-111h-35v176h32l41 -60l33 -52h1zM155 94l64 196h26l-65 -196h-25zM347 281v0l61 -176h-38l-11 36h-61l-12 -36h-37l62 176h36zM307 170v0h43l-7 23l-14 46h-1l-13 -45z" />
    <glyph glyph-name="uniF171" unicode="&#xf171;" horiz-adv-x="405" 
d="M0 85v22h64v-86h-64v22h43v10h-22v22h22v10h-43zM21 277v64h-21v22h43v-86h-22zM0 213v22h64v-20l-38 -44h38v-22h-64v20l38 44h-38zM107 341h298v-42h-298v42zM107 43v42h298v-42h-298zM107 171v42h298v-42h-298z" />
    <glyph glyph-name="uniF172" unicode="&#xf172;" horiz-adv-x="363" 
d="M299 363h64v-171h-171v-192c0 -12 -9 -21 -21 -21h-43c-12 0 -21 9 -21 21v235h213v85h-21v-21c0 -12 -10 -22 -22 -22h-256c-12 0 -21 10 -21 22v85c0 12 9 21 21 21h256c12 0 22 -9 22 -21v-21z" />
    <glyph glyph-name="uniF11F" unicode="&#xf11f;" 
d="M329 73l-105 106v141h64v-115l87 -86zM256 448c141 0 256 -115 256 -256s-115 -256 -256 -256s-256 115 -256 256s115 256 256 256zM256 0c106 0 192 86 192 192s-86 192 -192 192s-192 -86 -192 -192s86 -192 192 -192z" />
    <glyph glyph-name="uniF1B2" unicode="&#xf1b2;" horiz-adv-x="507" 
d="M81 140c-3 0 -7 1 -9 3l-69 81c-4 4 -3 11 1 15s11 3 15 -1l60 -70l50 78c3 5 10 6 15 3s6 -10 3 -15l-58 -89c-2 -3 -5 -5 -8 -5v0zM497 113c-3 0 -7 2 -9 5l-52 77l-59 -71c-4 -5 -10 -6 -15 -2s-5 10 -1 15l68 82c2 3 6 4 9 4s6 -2 8 -5l59 -88c3 -5 3 -12 -2 -15
c-2 -1 -4 -2 -6 -2zM257 -0c-50 0 -98 19 -135 55c-4 4 -4 11 0 15s11 5 15 1c42 -42 101 -59 159 -45c84 20 141 99 131 185c-1 6 3 11 9 12s11 -3 12 -9c11 -96 -52 -187 -147 -209c-15 -3 -29 -5 -44 -5zM81 140c-5 0 -10 3 -11 8c-12 50 -3 101 24 145s69 74 119 86
c69 16 141 -7 188 -60c4 -4 3 -11 -1 -15s-11 -3 -15 1c-42 47 -106 68 -167 53c-44 -10 -82 -37 -106 -76s-31 -85 -21 -129c1 -6 -2 -12 -8 -13h-2z" />
    <glyph glyph-name="uniF164" unicode="&#xf164;" horiz-adv-x="496" 
d="M248 448c137 0 248 -111 248 -248s-111 -248 -248 -248s-248 111 -248 248s111 248 248 248zM464 208c-2 52 -23 99 -55 135c-18 -14 -38 -26 -60 -35c11 -31 18 -65 19 -100h96zM239 -16h1v96c-23 -1 -45 -4 -66 -11c16 -33 38 -63 65 -85zM257 416h-1v-112
c25 1 49 6 72 14c-17 39 -41 73 -71 98zM283 413c25 -25 45 -55 60 -90c20 8 38 19 55 32c-31 30 -71 51 -115 58zM240 416h-1c-30 -25 -54 -59 -71 -98c23 -8 47 -13 72 -14v112zM153 323c15 35 35 65 60 90c-44 -7 -84 -28 -115 -58c17 -13 35 -24 55 -32zM162 303
c-11 -29 -17 -61 -18 -95h96v80c-27 1 -53 6 -78 15zM240 192h-96c1 -39 9 -76 23 -109c23 7 48 12 73 13v96zM213 -13c-22 21 -40 47 -54 76c-18 -7 -35 -16 -51 -27c29 -25 65 -42 105 -49zM256 -16h1c27 22 49 52 65 85c-21 7 -43 10 -66 11v-96zM337 63
c-14 -29 -32 -55 -54 -76c40 7 76 24 105 49c-16 11 -33 20 -51 27zM329 83c14 33 22 70 23 109h-96v-96c25 -1 50 -6 73 -13zM256 208v0h96c-1 34 -7 66 -18 95c-25 -9 -51 -14 -78 -15v-80zM87 343c-32 -36 -53 -83 -55 -135h96c1 35 8 69 19 100c-22 9 -42 21 -60 35z
M32 192c2 -57 26 -108 64 -145c17 12 36 23 56 31c-15 35 -23 73 -24 114h-96zM400 47c38 37 62 88 64 145h-96c-1 -41 -9 -79 -24 -114c20 -8 39 -19 56 -31z" />
    <glyph glyph-name="uniF18A" unicode="&#xf18a;" 
d="M208 384c-9 0 -16 7 -16 16v32c0 9 7 16 16 16s16 -7 16 -16v-32c0 -9 -7 -16 -16 -16zM332 342c-6 -6 -16 -6 -22 0s-6 16 0 22l22 23c6 6 17 6 23 0s6 -17 0 -23zM16 224c-9 0 -16 7 -16 16s7 16 16 16h32c9 0 16 -7 16 -16s-7 -16 -16 -16h-32zM352 240
c0 9 7 16 16 16h32c9 0 16 -7 16 -16s-7 -16 -16 -16h-32c-9 0 -16 7 -16 16zM84 342l-23 22c-6 6 -6 17 0 23s17 6 23 0l22 -23c6 -6 6 -16 0 -22s-16 -6 -22 0zM400 192v0c62 0 112 -50 112 -112s-50 -112 -112 -112c-14 0 -27 2 -40 7c-29 -25 -65 -39 -104 -39
c-38 0 -75 14 -104 39c-13 -5 -26 -7 -40 -7c-62 0 -112 50 -112 112c0 60 48 110 108 112c-7 15 -12 31 -12 48c0 62 50 112 112 112c61 0 111 -49 112 -110c25 -11 47 -28 64 -51c5 1 11 1 16 1zM208 320c-44 0 -80 -36 -80 -80c0 -14 4 -26 10 -37c30 33 72 53 118 53
c10 0 21 -1 31 -3c-6 38 -39 67 -79 67zM400 0v-0c44 0 80 36 80 80s-36 80 -80 80c-11 0 -21 -2 -30 -6c-12 24 -32 43 -55 55c-9 5 -19 9 -30 11c-9 2 -19 4 -29 4c-39 0 -75 -18 -98 -46c-6 -7 -12 -15 -16 -24c-3 1 -5 1 -8 2c-7 2 -14 4 -22 4c-44 0 -80 -36 -80 -80
s36 -80 80 -80c17 0 33 6 46 15c23 -28 58 -47 98 -47s75 19 98 47c13 -9 29 -15 46 -15z" />
    <glyph glyph-name="uniF112" unicode="&#xf112;" horiz-adv-x="449" 
d="M0 191l111 112h338v-222h-338zM322 119l20 20l-57 56l57 56l-20 20l-56 -56l-57 56l-19 -20l56 -56l-56 -56l19 -20l57 56z" />
    <glyph glyph-name="uniF18D" unicode="&#xf18d;" 
d="M192 64l96 64l-32 -64l32 -32l-96 -96l32 96zM512 313v0c0 -23 -9 -44 -24 -60c15 -19 24 -42 24 -68c0 -62 -50 -112 -112 -112c-14 0 -27 3 -40 8c-14 -12 -30 -22 -47 -29l-18 18l6 12c21 8 39 21 53 38c13 -9 29 -15 46 -15c44 0 80 36 80 80c0 18 -7 35 -17 49
c-8 10 -18 18 -29 23c-10 5 -22 8 -34 8l-13 -1c-6 -1 -11 -3 -17 -5c-21 41 -64 70 -114 70c-36 0 -68 -15 -91 -39c-8 -8 -15 -18 -21 -28c-1 -1 -1 -2 -2 -3c-9 4 -19 6 -30 6c-44 0 -80 -36 -80 -80s36 -80 80 -80c17 0 33 6 46 15c7 -9 17 -16 26 -23l-29 -19
c-1 1 -2 1 -3 2c-13 -5 -26 -7 -40 -7c-62 0 -112 50 -112 112s50 112 112 112c5 0 11 0 16 -1l2 2c-1 5 -2 10 -2 15c0 49 40 89 89 89h7c23 29 58 46 96 46s73 -17 96 -46h7c49 0 89 -40 89 -89zM466 276v0c9 10 14 23 14 37c0 32 -25 57 -57 57c-8 0 -15 -1 -22 -4
c-15 30 -46 50 -81 50s-66 -20 -81 -50c-7 3 -14 4 -22 4c-25 0 -47 -16 -54 -39c27 19 59 30 93 30c51 0 98 -24 128 -65c5 1 11 1 16 1c25 0 48 -8 66 -21z" />
    <glyph glyph-name="uniF1A5" unicode="&#xf1a5;" 
d="M128 416h256v-64h-256v64zM480 320c18 0 32 -14 32 -32v-160c0 -18 -14 -32 -32 -32h-96v-128h-256v128h-96c-18 0 -32 14 -32 32v160c0 18 14 32 32 32h448zM352 0v160h-192v-160h192zM487 272c0 13 -10 23 -23 23s-23 -10 -23 -23s10 -23 23 -23s23 10 23 23z" />
    <glyph glyph-name="uniF1A8" unicode="&#xf1a8;" horiz-adv-x="432" 
d="M192 60v-124l-192 192l192 192v-127c223 -5 214 152 157 255c140 -152 110 -395 -157 -388z" />
    <glyph glyph-name="uniF130" unicode="&#xf130;" 
d="M420 300c39 -28 70 -65 92 -108c-48 -95 -144 -160 -256 -160c-31 0 -62 6 -90 15l39 39c17 -4 34 -6 51 -6c45 0 88 13 126 37c30 19 56 45 75 75c-19 29 -43 54 -72 73zM256 99c-11 0 -23 1 -33 4l157 157c3 -10 4 -22 4 -33c0 -71 -57 -128 -128 -128zM480 448v0v-27
l-453 -453h-27v27l91 90c-38 27 -70 64 -91 107c48 95 144 160 256 160c30 0 59 -5 87 -14l110 110h27zM208 291v0c-27 0 -48 -21 -48 -48c0 -24 18 -43 41 -47l54 54c-4 23 -23 41 -47 41zM55 192c18 -29 42 -53 70 -72l29 29c-17 22 -26 49 -26 78c0 15 3 30 8 44
c-2 -1 -4 -3 -6 -4c-30 -19 -56 -45 -75 -75z" />
    <glyph glyph-name="uniF1BB" unicode="&#xf1bb;" 
d="M419 14c-6 0 -12 3 -16 7c-9 9 -9 23 0 32c41 41 64 96 64 154s-23 113 -64 154c-9 9 -9 23 0 32s23 9 32 0c50 -50 77 -116 77 -186s-27 -136 -77 -186c-4 -4 -10 -7 -16 -7v0zM339 57c-6 0 -12 2 -16 6c-9 9 -9 23 0 32c62 62 62 162 0 224c-9 9 -9 23 0 32s23 9 32 0
c38 -38 59 -90 59 -144s-21 -106 -59 -144c-4 -4 -10 -6 -16 -6v0zM258 99c-6 0 -12 3 -16 7c-9 9 -9 23 0 32c38 38 38 100 0 138c-9 9 -9 23 0 32s23 9 32 0c56 -56 56 -146 0 -202c-4 -4 -10 -7 -16 -7v0zM189 411c12 12 22 8 22 -9v-390c0 -17 -10 -21 -22 -9l-114 114
h-75v180h75l114 114v0z" />
    <glyph glyph-name="uniF177" unicode="&#xf177;" horiz-adv-x="256" 
d="M30 119l-30 30l128 128l128 -128l-30 -30l-98 98z" />
    <glyph glyph-name="uniF184" unicode="&#xf184;" horiz-adv-x="256" 
d="M0 320h256v-256h-256v256z" />
    <glyph glyph-name="uniF1AF" unicode="&#xf1af;" 
d="M512 249l-128 -124l30 -176l-158 83l-158 -83l30 176l-128 124l177 26l79 160l79 -160z" />
    <glyph glyph-name="uniF11D" unicode="&#xf11d;" horiz-adv-x="480" 
d="M64 -16c0 27 21 48 48 48s48 -21 48 -48s-21 -48 -48 -48s-48 21 -48 48zM384 -16c0 27 21 48 48 48s48 -21 48 -48s-21 -48 -48 -48s-48 21 -48 48zM480 192l-416 -64v0c0 -18 14 -32 32 -32h384v-32h-384c-35 0 -64 29 -64 64c0 20 9 38 24 50l-24 206
c0 18 -14 32 -32 32v32c35 0 64 -29 64 -64h416v-192z" />
    <glyph glyph-name="uniF19D" unicode="&#xf19d;" 
d="M448 320h64v-272c0 -27 -21 -48 -48 -48h-432c-18 0 -32 14 -32 32v352h448v-64zM416 32v320h-384v-320h384zM64 288h320v-32h-320v32zM256 224h128v-32h-128v32zM256 160h128v-32h-128v32zM256 96h96v-32h-96v32zM64 224h160v-160h-160v160z" />
    <glyph glyph-name="uniF16E" unicode="&#xf16e;" horiz-adv-x="299" 
d="M299 311l-119 -119l119 -119l-31 -30l-119 119l-119 -119l-30 30l119 119l-119 119l30 30l119 -119l119 119z" />
    <glyph glyph-name="uniF146" unicode="&#xf146;" 
d="M0 384h512v-416h-512v416zM480 0v352h-448v-352h448zM352 272c0 27 21 48 48 48s48 -21 48 -48s-21 -48 -48 -48s-48 21 -48 48zM448 32h-384l96 256l128 -160l64 48z" />
    <glyph glyph-name="uniF1A3" unicode="&#xf1a3;" horiz-adv-x="320" 
d="M0 384l320 -192l-320 -192v384z" />
    <glyph glyph-name="uniF148" unicode="&#xf148;" 
d="M0 256h416v-192h-416v192zM384 96v128h-352v-128h352zM128 320h384v-192h-32v160h-352v32z" />
    <glyph glyph-name="uniF1B7" unicode="&#xf1b7;" horiz-adv-x="432" 
d="M349 -64c57 103 66 260 -157 255v-127l-192 192l192 192v-124c267 7 297 -236 157 -388z" />
    <glyph glyph-name="uniF1B0" unicode="&#xf1b0;" horiz-adv-x="384" 
d="M0 384h384v-384h-384v384z" />
    <glyph glyph-name="uniF129" unicode="&#xf129;" 
d="M464 384c26 0 48 -22 48 -48v-288c0 -26 -22 -48 -48 -48h-416c-26 0 -48 22 -48 48v288c0 26 22 48 48 48h416zM48 352c-9 0 -16 -7 -16 -16v-48h448v48c0 9 -7 16 -16 16h-416zM464 32c9 0 16 7 16 16v144h-448v-144c0 -9 7 -16 16 -16h416zM64 128h32v-64h-32v64z
M128 128h32v-64h-32v64zM192 128h32v-64h-32v64z" />
    <glyph glyph-name="uniF152" unicode="&#xf152;" horiz-adv-x="448" 
d="M448 416l-192 -448v256h-256z" />
    <glyph glyph-name="uniF176" unicode="&#xf176;" horiz-adv-x="158" 
d="M0 97l98 98l-98 97l30 31l128 -128l-128 -128z" />
    <glyph glyph-name="uniF1A4" unicode="&#xf1a4;" 
d="M496 256c9 0 16 -7 16 -16v-96c0 -9 -7 -16 -16 -16h-176v-176c0 -9 -7 -16 -16 -16h-96c-9 0 -16 7 -16 16v176h-176c-9 0 -16 7 -16 16v96c0 9 7 16 16 16h176v176c0 9 7 16 16 16h96c9 0 16 -7 16 -16v-176h176z" />
    <glyph glyph-name="uniF194" unicode="&#xf194;" 
d="M34 192v0h-32c-1 5 -2 11 -2 16c0 62 50 112 112 112c5 0 11 0 16 -1c30 41 77 65 128 65s98 -24 128 -65c5 1 11 1 16 1c62 0 112 -50 112 -112c0 -5 -1 -11 -2 -16h-32c1 5 2 11 2 16c0 44 -36 80 -80 80c-11 0 -21 -2 -30 -6c-21 41 -64 70 -114 70s-93 -29 -114 -70
c-9 4 -19 6 -30 6c-44 0 -80 -36 -80 -80c0 -5 1 -11 2 -16zM496 160c9 0 16 -7 16 -16s-7 -16 -16 -16h-480c-9 0 -16 7 -16 16s7 16 16 16h480zM496 96c9 0 16 -7 16 -16s-7 -16 -16 -16h-480c-9 0 -16 7 -16 16s7 16 16 16h480zM496 32c9 0 16 -7 16 -16s-7 -16 -16 -16
h-480c-9 0 -16 7 -16 16s7 16 16 16h480z" />
    <glyph glyph-name="uniF188" unicode="&#xf188;" 
d="M400 288c62 0 112 -50 112 -112s-50 -112 -112 -112c-14 0 -27 2 -40 7c-29 -25 -65 -39 -104 -39c-38 0 -75 14 -104 39c-13 -5 -26 -7 -40 -7c-62 0 -112 50 -112 112s50 112 112 112c5 0 11 0 16 -1c30 41 77 65 128 65s98 -24 128 -65c5 1 11 1 16 1zM400 96
c44 0 80 36 80 80s-36 80 -80 80c-11 0 -21 -2 -30 -6c-21 41 -64 70 -114 70s-93 -29 -114 -70c-9 4 -19 6 -30 6c-44 0 -80 -36 -80 -80s36 -80 80 -80c17 0 33 6 46 15c23 -28 58 -47 98 -47s75 19 98 47c13 -9 29 -15 46 -15z" />
    <glyph glyph-name="uniF189" unicode="&#xf189;" 
d="M512 313v0c0 -23 -9 -44 -24 -60c15 -19 24 -42 24 -68c0 -62 -50 -112 -112 -112c-14 0 -27 2 -40 7c-28 -24 -62 -37 -99 -38l-5 -10l32 -32l-96 -64l32 64l-32 32l23 15c-23 6 -45 17 -63 33c-13 -5 -26 -7 -40 -7c-62 0 -112 50 -112 112s50 112 112 112
c5 0 11 0 16 -1l2 2c-1 5 -2 10 -2 15c0 49 40 89 89 89h7c23 29 58 46 96 46s73 -17 96 -46h7c49 0 89 -40 89 -89zM400 105c44 0 80 36 80 80c0 18 -7 35 -17 49c-8 10 -18 18 -29 23c-10 5 -22 8 -34 8l-13 -1c-6 -1 -11 -3 -17 -5c-21 41 -64 70 -114 70
c-36 0 -68 -15 -91 -39c-8 -8 -15 -18 -21 -28c-1 -1 -1 -2 -2 -3c-9 4 -19 6 -30 6c-44 0 -80 -36 -80 -80s36 -80 80 -80c17 0 33 6 46 15c23 -28 57 -46 96 -47l24 3c30 5 57 21 76 44c13 -9 29 -15 46 -15zM466 276v0c9 10 14 23 14 37c0 32 -25 57 -57 57
c-8 0 -15 -1 -22 -4c-15 30 -46 50 -81 50s-66 -20 -81 -50c-7 3 -14 4 -22 4c-25 0 -47 -16 -54 -39c27 19 59 30 93 30c51 0 98 -24 128 -65c5 1 11 1 16 1c25 0 48 -8 66 -21z" />
    <glyph glyph-name="uniF1A6" unicode="&#xf1a6;" horiz-adv-x="432" 
d="M240 324v124l192 -192l-192 -192v127c-223 5 -214 -152 -157 -255c-140 152 -110 395 157 388z" />
    <glyph glyph-name="uniF1B3" unicode="&#xf1b3;" 
d="M256 448c141 0 256 -115 256 -256s-115 -256 -256 -256s-256 115 -256 256s115 256 256 256zM160 192c0 -53 43 -96 96 -96s96 43 96 96s-43 96 -96 96s-96 -43 -96 -96zM463 106v0c11 26 17 56 17 86s-6 60 -17 86l-89 -37c6 -15 10 -32 10 -49s-4 -34 -10 -49l89 -37v0
zM342 399c-26 11 -56 17 -86 17s-60 -6 -86 -17l37 -89c15 6 32 10 49 10s34 -4 49 -10l37 89v0v0zM49 278v0c-11 -26 -17 -56 -17 -86s6 -60 17 -86l89 37c-6 15 -10 32 -10 49s4 34 10 49zM170 -15c26 -11 56 -17 86 -17s60 6 86 17l-37 89c-15 -6 -32 -10 -49 -10
s-34 4 -49 10z" />
    <glyph glyph-name="uniF16D" unicode="&#xf16d;" horiz-adv-x="384" 
d="M341 341h-298v-298h298v298zM341 384c23 0 43 -20 43 -43v-298c0 -23 -20 -43 -43 -43h-298c-23 0 -43 20 -43 43v298c0 23 20 43 43 43h298z" />
    <glyph glyph-name="uniF139" unicode="&#xf139;" horiz-adv-x="448" 
d="M420 348v0c16 -16 28 -46 28 -68v-304c0 -22 -18 -40 -40 -40h-368c-22 0 -40 18 -40 40v432c0 22 18 40 40 40h240c22 0 52 -12 68 -28zM397 326v0l-71 71c-2 2 -4 3 -6 5v-82h82c-2 2 -3 4 -5 6zM416 -24v304c0 2 0 5 -1 8h-127v127c-3 1 -6 1 -8 1h-240
c-4 0 -8 -4 -8 -8v-432c0 -4 4 -8 8 -8h368c4 0 8 4 8 8z" />
    <glyph glyph-name="uniF197" unicode="&#xf197;" 
d="M417 282c53 -2 95 -47 95 -100c0 -55 -45 -99 -100 -99c-6 0 -11 0 -17 1c-21 -14 -45 -21 -70 -21s-48 7 -69 21c-6 -1 -12 -1 -18 -1c-55 0 -99 44 -99 99c0 53 42 98 95 100c24 25 56 39 91 39s68 -14 92 -39zM412 115v0c37 0 68 30 68 67s-31 68 -68 68
c-3 0 -6 -1 -9 -1c-18 25 -47 40 -78 40s-59 -15 -77 -40c-3 0 -7 1 -10 1c-37 0 -67 -31 -67 -68s30 -67 67 -67c8 0 16 1 24 4c17 -15 40 -24 63 -24s45 9 63 24c8 -3 16 -4 24 -4zM144 96c9 0 16 -7 16 -16s-7 -16 -16 -16h-128c-9 0 -16 7 -16 16s7 16 16 16h128z
M16 128c-9 0 -16 7 -16 16s7 16 16 16h64c9 0 16 -7 16 -16s-7 -16 -16 -16h-64zM48 192c-9 0 -16 7 -16 16s7 16 16 16h64c9 0 16 -7 16 -16s-7 -16 -16 -16h-64z" />
    <glyph glyph-name="uniF132" unicode="&#xf132;" horiz-adv-x="475" 
d="M250 29c0 4 0 8 -1 12s-2 7 -3 10s-3 7 -5 10s-4 7 -6 9s-4 5 -7 8l-8 8s-5 4 -9 7s-7 5 -9 6s-5 4 -10 7s-7 5 -8 6c-3 0 -9 1 -15 1c-10 0 -20 -1 -30 -2s-20 -5 -31 -8s-20 -8 -28 -13s-14 -12 -19 -21s-8 -20 -8 -31c0 -13 3 -24 10 -34s16 -18 27 -24s22 -10 34 -13
s24 -5 36 -5c11 0 22 2 32 4s20 6 29 11s16 12 21 21s8 19 8 31zM216 276c0 11 -2 23 -5 36s-7 25 -13 37s-14 22 -24 30s-21 12 -34 12c-18 0 -31 -7 -41 -20s-15 -29 -15 -47c0 -9 1 -18 3 -28s5 -20 10 -30s10 -19 16 -27s14 -14 23 -19s17 -7 27 -7c18 0 33 5 41 17
s12 27 12 46zM179 411h124l-38 -22h-39c14 -9 25 -21 32 -36s11 -31 11 -48c0 -14 -3 -27 -7 -38s-10 -19 -16 -26s-13 -13 -19 -19s-12 -11 -16 -17s-6 -13 -6 -20c0 -5 2 -9 5 -14s7 -10 12 -14s11 -9 17 -14s12 -9 18 -15s12 -12 17 -19s9 -16 12 -25s5 -19 5 -30
c0 -30 -13 -58 -40 -81c-29 -25 -69 -37 -120 -37c-11 0 -23 1 -35 3s-22 5 -34 9s-22 10 -31 17s-16 15 -22 25s-9 22 -9 35c0 12 4 25 11 39c6 12 15 22 27 31s26 16 41 21s31 8 45 10s29 4 43 4c-12 16 -19 29 -19 42c0 2 1 5 1 7s0 4 1 6s2 3 3 6s2 4 2 6
c-8 -1 -14 -2 -20 -2c-28 0 -53 9 -73 28s-31 43 -31 71c0 27 9 50 27 71s41 35 67 41c18 4 36 5 54 5v0zM475 338v-36h-73v-73h-36v73h-73v36h73v73h36v-73h73z" />
    <glyph glyph-name="uniF1B8" unicode="&#xf1b8;" horiz-adv-x="480" 
d="M384 416c53 0 96 -43 96 -96v-96h-64v96c0 18 -14 32 -32 32h-64c-18 0 -32 -14 -32 -32v-96h8c13 0 24 -11 24 -24v-240c0 -13 -11 -24 -24 -24h-272c-13 0 -24 11 -24 24v240c0 13 11 24 24 24h200v96c0 53 43 96 96 96h64zM192 0l-14 70c8 6 14 15 14 26
c0 18 -14 32 -32 32s-32 -14 -32 -32c0 -11 6 -20 14 -26l-14 -70h64z" />
    <glyph glyph-name="uniF17E" unicode="&#xf17e;" horiz-adv-x="384" 
d="M85 299v-86h-42v128h256v64l85 -85l-85 -85v64h-214zM299 85v86h42v-128h-256v-64l-85 85l85 85v-64h214z" />
    <glyph glyph-name="uniF198" unicode="&#xf198;" 
d="M417 377c53 -2 95 -46 95 -99c0 -55 -45 -100 -100 -100c-6 0 -11 0 -17 1c-21 -14 -45 -20 -70 -20s-48 6 -69 20c-6 -1 -12 -1 -18 -1c-55 0 -99 45 -99 100c0 53 42 97 95 99c24 25 56 39 91 39s68 -14 92 -39zM412 210v0c37 0 68 31 68 68s-31 67 -68 67h-9
c-18 25 -47 39 -78 39s-59 -14 -77 -39h-10c-37 0 -67 -30 -67 -67s30 -68 67 -68c8 0 16 1 24 4c17 -15 40 -23 63 -23s45 8 63 23c8 -3 16 -4 24 -4zM144 191c9 0 16 -7 16 -16s-7 -16 -16 -16h-128c-9 0 -16 7 -16 16s7 16 16 16h128zM16 223c-9 0 -16 7 -16 16
s7 16 16 16h64c9 0 16 -7 16 -16s-7 -16 -16 -16h-64zM48 287c-9 0 -16 7 -16 16s7 16 16 16h64c9 0 16 -7 16 -16s-7 -16 -16 -16h-64zM224 64c0 18 32 64 32 64s32 -46 32 -64s-14 -32 -32 -32s-32 14 -32 32zM352 0c0 18 32 64 32 64s32 -46 32 -64s-14 -32 -32 -32
s-32 14 -32 32z" />
    <glyph glyph-name="uniF168" unicode="&#xf168;" 
d="M437 373l75 75v-192h-192l72 72c-35 35 -83 56 -136 56c-82 0 -153 -52 -180 -125l-60 23c36 97 130 166 240 166c71 0 135 -29 181 -75zM256 0c82 0 153 52 180 125l60 -23c-36 -97 -130 -166 -240 -166c-71 0 -135 29 -181 75l-75 -75v192h192l-72 -72
c35 -35 83 -56 136 -56z" />
    <glyph glyph-name="uniF18C" unicode="&#xf18c;" 
d="M400 384v0c62 0 112 -50 112 -112s-50 -112 -112 -112c-14 0 -27 2 -40 7c-17 -15 -36 -24 -57 -31l13 40c14 8 28 18 38 31c13 -9 29 -15 46 -15c44 0 80 36 80 80s-36 80 -80 80c-11 0 -21 -2 -30 -6c-21 41 -64 70 -114 70s-93 -29 -114 -70c-9 4 -19 6 -30 6
c-44 0 -80 -36 -80 -80s36 -80 80 -80c17 0 33 6 46 15c15 -19 37 -32 60 -40l-25 -25c-15 6 -29 14 -41 25c-13 -5 -26 -7 -40 -7c-62 0 -112 50 -112 112s50 112 112 112c5 0 11 0 16 -1c30 41 77 65 128 65s98 -24 128 -65c5 1 11 1 16 1zM192 96l96 96l-32 -96l32 -32
l-96 -96l32 96z" />
    <glyph glyph-name="uniF121" unicode="&#xf121;" 
d="M512 119v0c0 -48 -39 -87 -87 -87h-328c-54 0 -97 43 -97 97s43 97 97 97c6 0 11 -1 17 -2c0 3 -1 7 -1 10c0 37 30 67 67 67c22 0 41 -10 53 -26c22 28 56 45 94 45c65 0 116 -52 118 -116c38 -9 67 -44 67 -85z" />
    <glyph glyph-name="uniF180" unicode="&#xf180;" horiz-adv-x="256" 
d="M0 64v256l181 -128zM213 320h43v-256h-43v256z" />
    <glyph glyph-name="uniF1B5" unicode="&#xf1b5;" horiz-adv-x="462" 
d="M432 160c36 0 16 -96 -16 -96c16 0 0 -80 -32 -80c0 -32 -32 -48 -64 -48c-135 0 -88 34 -224 48v256c120 36 240 127 240 208c26 0 96 -32 0 -192h96c48 0 32 -96 0 -96zM64 240v-256h32v-16h-64c-18 0 -32 22 -32 48v192c0 26 14 48 32 48h64v-16h-32z" />
    <glyph glyph-name="uniF15B" unicode="&#xf15b;" 
d="M448 368c35 0 64 -29 64 -64v-208c0 -35 -29 -64 -64 -64h-384c-35 0 -64 29 -64 64v208c0 35 29 64 64 64h384zM32 284v-168l112 84zM480 96l-125 94l-70 -52c-9 -6 -19 -10 -29 -10s-20 4 -29 10l-70 52l-125 -94c0 -18 14 -32 32 -32h384c18 0 32 14 32 32zM480 116
v168l-112 -84zM275 150l205 154c0 18 -14 32 -32 32h-384c-18 0 -32 -14 -32 -32l205 -154c6 -4 12 -6 19 -6s13 2 19 6z" />
    <glyph glyph-name="uniF12F" unicode="&#xf12f;" 
d="M256 352c112 0 208 -65 256 -160c-48 -95 -144 -160 -256 -160s-208 65 -256 160c48 95 144 160 256 160zM382 267c-2 1 -4 3 -6 4c5 -14 8 -29 8 -44c0 -71 -57 -128 -128 -128s-128 57 -128 128c0 15 3 30 8 44c-2 -1 -4 -3 -6 -4c-30 -19 -56 -45 -75 -75
c19 -30 45 -56 75 -75c38 -24 81 -37 126 -37s88 13 126 37c30 19 56 45 75 75c-19 30 -45 56 -75 75zM256 243c0 27 -21 48 -48 48s-48 -21 -48 -48s21 -48 48 -48s48 21 48 48z" />
    <glyph glyph-name="uniF11E" unicode="&#xf11e;" 
d="M432 384l80 -80l-320 -320l-192 192l80 80l112 -112z" />
    <glyph glyph-name="uniF159" unicode="&#xf159;" 
d="M467 364c60 -59 60 -156 0 -215c-2 -2 -177 -175 -177 -175c-19 -19 -49 -19 -68 0c0 0 -160 158 -177 175c-60 59 -60 156 0 215c58 58 151 58 211 4c60 54 153 54 211 -4zM444 172c47 47 47 122 0 169c-46 45 -118 47 -166 4l-22 -20l-22 20c-48 43 -120 41 -166 -4
c-47 -47 -47 -122 0 -169l177 -175c6 -6 16 -6 22 0zM148 328c4 0 8 -4 8 -8s-4 -8 -8 -8v0c-29 0 -52 -23 -52 -52v0c0 -4 -4 -8 -8 -8s-8 4 -8 8v0c0 38 30 68 68 68v0z" />
    <glyph glyph-name="uniF1BD" unicode="&#xf1bd;" horiz-adv-x="480" 
d="M201 409c13 13 23 8 23 -10v-414c0 -18 -10 -23 -23 -10l-121 121h-80v192h80l121 121v0zM480 138v-42h-42l-54 54l-54 -54h-42v42l54 54l-54 54v42h42l54 -54l54 54h42v-42l-54 -54z" />
    <glyph glyph-name="uniF174" unicode="&#xf174;" horiz-adv-x="256" 
d="M30 273l98 -98l98 98l30 -30l-128 -128l-128 128z" />
    <glyph glyph-name="uniF11C" unicode="&#xf11c;" 
d="M152 144c0 57 47 104 104 104s104 -47 104 -104s-47 -104 -104 -104s-104 47 -104 104zM480 320c18 0 32 -14 32 -32v-288c0 -18 -14 -32 -32 -32h-448c-18 0 -32 14 -32 32v288c0 18 14 32 32 32h112c8 32 16 64 48 64h128c32 0 40 -32 48 -64h112zM256 2
c78 0 142 64 142 142s-64 142 -142 142s-142 -64 -142 -142s64 -142 142 -142zM480 224v32h-64v-32h64z" />
    <glyph glyph-name="uniF19C" unicode="&#xf19c;" 
d="M160 352l352 96v-368c0 -44 -50 -80 -112 -80s-112 36 -112 80s50 80 112 80c17 0 33 -3 48 -8v165l-224 -61v-240c0 -44 -50 -80 -112 -80s-112 36 -112 80s50 80 112 80c17 0 33 -3 48 -8v264v0z" />
    <glyph glyph-name="uniF13E" unicode="&#xf13e;" horiz-adv-x="394" 
d="M381 345c7 0 13 -6 13 -13v-24c0 -2 -1 -2 -2 -3s-4 -2 -5 -3l-188 -110c-1 0 -1 -1 -2 -1s0 1 -1 1l-194 110c-1 1 -2 2 -2 3v27c0 7 6 13 13 13h368zM393 265c1 -1 1 -1 1 -2v-177c0 -1 -1 -3 -2 -3l-1 -1c-1 0 -1 0 -2 1l-107 115c-1 1 0 2 0 3s0 2 1 2l106 62
c1 1 3 1 4 0zM253 182l127 -137c1 -1 1 -3 0 -4s-2 -2 -3 -2h-364c-2 0 -4 1 -6 2c-1 1 -2 2 -2 3s0 2 1 3l142 131c1 1 3 2 4 1l38 -22c5 -3 11 -2 16 1l42 25c1 1 4 0 5 -1zM117 194l-112 -103c-1 -1 -1 -1 -2 -1h-1c-1 1 -2 2 -2 3v167c0 1 1 2 2 3s2 1 3 0l111 -64
c1 -1 2 -1 2 -2s0 -2 -1 -3z" />
    <glyph glyph-name="uniF155" unicode="&#xf155;" 
d="M352 448c88 0 160 -72 160 -160s-72 -160 -160 -160c-19 0 -37 4 -54 10l-42 -42h-64v-64h-64v-64h-64v-32h-32c-18 0 -32 14 -32 32v96l195 195c-2 10 -3 19 -3 29c0 88 72 160 160 160zM400 288c27 0 48 21 48 48s-21 48 -48 48s-48 -21 -48 -48s21 -48 48 -48z" />
    <glyph glyph-name="uniF13D" unicode="&#xf13d;" horiz-adv-x="432" 
d="M83 448c-57 -103 -66 -260 157 -255v127l192 -192l-192 -192v124c-267 -7 -297 236 -157 388z" />
    <glyph glyph-name="uniF18F" unicode="&#xf18f;" 
d="M400 352c62 0 112 -50 112 -112s-50 -112 -112 -112c-14 0 -27 2 -40 7c-29 -25 -65 -39 -104 -39c-38 0 -75 14 -104 39c-13 -5 -26 -7 -40 -7c-62 0 -112 50 -112 112s50 112 112 112c5 0 11 0 16 -1c30 41 77 65 128 65s98 -24 128 -65c5 1 11 1 16 1zM400 160
c44 0 80 36 80 80s-36 80 -80 80c-11 0 -21 -2 -30 -6c-21 41 -64 70 -114 70s-93 -29 -114 -70c-9 4 -19 6 -30 6c-44 0 -80 -36 -80 -80s36 -80 80 -80c17 0 33 6 46 15c23 -28 58 -47 98 -47s75 19 98 47c13 -9 29 -15 46 -15zM224 0c0 18 32 64 32 64s32 -46 32 -64
s-14 -32 -32 -32s-32 14 -32 32z" />
    <glyph glyph-name="uniF1B4" unicode="&#xf1b4;" 
d="M464 448v0c26 0 48 -22 48 -48v-144c0 -26 -15 -63 -34 -82l-224 -224c-19 -19 -49 -19 -68 0l-172 172c-19 19 -19 50 0 69l224 223c19 19 56 34 82 34h144zM400 288c27 0 48 21 48 48s-21 48 -48 48s-48 -21 -48 -48s21 -48 48 -48z" />
    <glyph glyph-name="uniF118" unicode="&#xf118;" 
d="M256 416c141 0 256 -93 256 -208s-115 -208 -256 -208c-14 0 -27 1 -40 3c-55 -55 -121 -66 -184 -67v14c34 17 64 47 64 82c0 5 0 9 -1 14c-58 38 -95 97 -95 162c0 115 115 208 256 208z" />
    <glyph glyph-name="uniF193" unicode="&#xf193;" horiz-adv-x="416" 
d="M208 304c62 0 112 -50 112 -112s-50 -112 -112 -112s-112 50 -112 112s50 112 112 112zM208 112c44 0 80 36 80 80s-36 80 -80 80s-80 -36 -80 -80s36 -80 80 -80zM208 336c-9 0 -16 7 -16 16v32c0 9 7 16 16 16s16 -7 16 -16v-32c0 -9 -7 -16 -16 -16zM208 48
c9 0 16 -7 16 -16v-32c0 -9 -7 -16 -16 -16s-16 7 -16 16v32c0 9 7 16 16 16zM332 294c-6 -6 -16 -6 -22 0s-6 16 0 22l22 23c6 6 17 6 23 0s6 -17 0 -23zM84 90c6 6 16 6 22 0s6 -16 0 -22l-22 -23c-6 -6 -17 -6 -23 0s-6 17 0 23zM64 192c0 -9 -7 -16 -16 -16h-32
c-9 0 -16 7 -16 16s7 16 16 16h32c9 0 16 -7 16 -16zM400 208c9 0 16 -7 16 -16s-7 -16 -16 -16h-32c-9 0 -16 7 -16 16s7 16 16 16h32zM84 294l-23 22c-6 6 -6 17 0 23s17 6 23 0l22 -23c6 -6 6 -16 0 -22s-16 -6 -22 0zM332 90l23 -22c6 -6 6 -17 0 -23s-17 -6 -23 0
l-22 23c-6 6 -6 16 0 22s16 6 22 0z" />
    <glyph glyph-name="uniF1A0" unicode="&#xf1a0;" 
d="M432 448c44 0 80 -36 80 -80c0 -18 -6 -35 -16 -48l-32 -32l-112 112l32 32c13 10 30 16 48 16zM32 80l296 296l112 -112l-296 -296l-144 -32zM358 266l-28 28l-224 -224l28 -28z" />
    <glyph glyph-name="uniF196" unicode="&#xf196;" horiz-adv-x="416" 
d="M368 256c26 0 48 -22 48 -48s-22 -48 -48 -48h-352c-9 0 -16 7 -16 16s7 16 16 16h307c-2 5 -3 10 -3 16c0 26 22 48 48 48zM16 224c-9 0 -16 7 -16 16s7 16 16 16h147c-2 5 -3 10 -3 16c0 26 22 48 48 48s48 -22 48 -48s-22 -48 -48 -48h-192zM272 128
c26 0 48 -22 48 -48s-22 -48 -48 -48s-48 22 -48 48c0 6 1 11 3 16h-206c-11 0 -21 7 -21 16s10 16 21 16h246h2h3z" />
    <glyph glyph-name="uniF17A" unicode="&#xf17a;" horiz-adv-x="384" 
d="M0 171v42h43v-42h-43zM0 85v43h43v-43h-43zM0 256v43h43v-43h-43zM85 171v42h299v-42h-299zM85 85v43h299v-43h-299zM85 299h299v-43h-299v43z" />
    <glyph glyph-name="uniF114" unicode="&#xf114;" 
d="M171 363h341v-342h-341l-171 171zM478 55v274h-293l-137 -137l137 -137h293zM263 90l-24 23l78 79l-78 79l24 23l78 -78l79 78l24 -23l-79 -79l79 -79l-24 -23l-79 78z" />
    <glyph glyph-name="uniF15E" unicode="&#xf15e;" 
d="M128 352c19 -15 32 -38 32 -64s-13 -49 -32 -64v-240c0 -26 -22 -48 -48 -48s-48 22 -48 48v240c-19 15 -32 38 -32 64s13 49 32 64v48c0 26 22 48 48 48s48 -22 48 -48v-48zM64 400v-34c5 1 11 2 16 2s11 -1 16 -2v34c0 9 -7 16 -16 16s-16 -7 -16 -16zM96 -16v226
c-5 -1 -11 -2 -16 -2s-11 1 -16 2v-226c0 -9 7 -16 16 -16s16 7 16 16zM126 275c1 4 2 8 2 13s-1 9 -2 13c0 1 -1 2 -1 3c-2 4 -3 8 -6 12v0c-3 4 -6 7 -10 10v0c-4 3 -8 5 -13 7s-10 3 -16 3s-11 -1 -16 -3s-9 -4 -13 -7v0c-4 -3 -7 -6 -10 -10v0c-3 -4 -4 -8 -6 -12
c0 -1 -1 -2 -1 -3c-1 -4 -2 -8 -2 -13s1 -9 2 -13c0 -1 1 -2 1 -3c2 -4 3 -8 6 -12v0c3 -4 6 -7 10 -10v0c4 -3 8 -5 13 -7s10 -3 16 -3s11 1 16 3s9 4 13 7v0c4 3 7 6 10 10v0c3 4 4 8 6 12c0 1 1 2 1 3zM480 352c19 -15 32 -38 32 -64s-13 -49 -32 -64v-240
c0 -26 -22 -48 -48 -48s-48 22 -48 48v240c-19 15 -32 38 -32 64s13 49 32 64v48c0 26 22 48 48 48s48 -22 48 -48v-48zM416 400v-34c5 1 10 2 16 2c5 0 11 -1 16 -2v34c0 9 -7 16 -16 16s-16 -7 -16 -16zM448 -16v226c-5 -1 -11 -2 -16 -2c-6 0 -11 1 -16 2v-226
c0 -9 7 -16 16 -16s16 7 16 16zM478 275c1 4 2 8 2 13s-1 9 -2 13c0 1 -1 2 -1 3c-2 4 -3 8 -6 12v0c-3 4 -6 7 -10 10v0c-4 3 -8 5 -13 7s-10 3 -16 3s-11 -1 -16 -3s-9 -4 -13 -7v0c-4 -3 -7 -6 -10 -10v0c-3 -4 -4 -8 -6 -12c0 -1 -1 -2 -1 -3c-1 -4 -2 -8 -2 -13
s1 -9 2 -13c0 -1 1 -2 1 -3c2 -4 3 -8 6 -12v0c3 -4 6 -7 10 -10v0c4 -3 8 -5 13 -7s10 -3 16 -3s11 1 16 3s9 4 13 7v0c4 3 7 6 10 10v0c3 4 4 8 6 12c0 1 1 2 1 3zM304 160c19 -15 32 -38 32 -64s-13 -49 -32 -64v-48c0 -26 -22 -48 -48 -48s-48 22 -48 48v48
c-19 15 -32 38 -32 64s13 49 32 64v240c0 26 22 48 48 48s48 -22 48 -48v-240zM240 400v-226c5 1 11 2 16 2s11 -1 16 -2v226c0 9 -7 16 -16 16s-16 -7 -16 -16zM272 -16v34c-5 -1 -11 -2 -16 -2s-11 1 -16 2v-34c0 -9 7 -16 16 -16s16 7 16 16zM302 83c1 4 2 8 2 13
s-1 9 -2 13c0 1 -1 2 -1 3c-2 4 -3 8 -6 12v0c-3 4 -6 7 -10 10v0c-4 3 -8 5 -13 7s-10 3 -16 3s-11 -1 -16 -3s-9 -4 -13 -7v0c-4 -3 -7 -6 -10 -10v0c-3 -4 -4 -8 -6 -12c0 -1 -1 -2 -1 -3c-1 -4 -2 -8 -2 -13s1 -9 2 -13c0 -1 1 -2 1 -3c2 -4 3 -8 6 -12v0
c3 -4 6 -7 10 -10v0c4 -3 8 -5 13 -7s10 -3 16 -3s11 1 16 3s9 4 13 7v0c4 3 7 6 10 10v0c3 4 4 8 6 12c0 1 1 2 1 3z" />
    <glyph glyph-name="uniF137" unicode="&#xf137;" horiz-adv-x="450" 
d="M450 331c-13 -19 -28 -34 -46 -47v-12c0 -25 -4 -49 -11 -74s-18 -48 -33 -71s-32 -44 -52 -61s-45 -31 -74 -41s-59 -16 -92 -16c-52 0 -99 14 -142 42c7 -1 14 -2 22 -2c43 0 81 14 115 40c-20 0 -38 6 -54 18s-26 28 -32 46c6 -1 12 -2 17 -2c8 0 16 2 24 4
c-21 4 -39 14 -53 31s-21 37 -21 59v1c13 -7 27 -10 42 -11c-13 8 -23 18 -30 32s-11 28 -11 44c0 17 4 33 12 47c23 -28 52 -51 85 -68s68 -27 106 -29c-2 7 -3 15 -3 22c0 26 9 47 27 65s40 27 66 27c27 0 49 -10 67 -29c21 4 41 11 59 22c-7 -22 -21 -39 -41 -51
c18 2 35 6 53 14v0z" />
    <glyph glyph-name="uniF113" unicode="&#xf113;" 
d="M448 0h-254c-9 0 -17 2 -24 9l-159 159l-2 2c-6 6 -9 14 -9 22s3 17 9 23l2 1l159 159c7 7 17 10 26 9h252c35 0 64 -29 64 -64v-256c0 -35 -29 -64 -64 -64zM416 272l-16 16l-80 -80l-80 80l-16 -16l80 -80l-80 -80l16 -16l80 80l80 -80l16 16l-80 80z" />
    <glyph glyph-name="uniF1A1" unicode="&#xf1a1;" horiz-adv-x="480" 
d="M352 128c32 32 128 -64 128 -96s-96 -96 -96 -96c-64 0 -194 66 -256 128s-128 192 -128 256c0 0 64 96 96 96s128 -96 96 -128s-64 -32 -64 -64s32 -64 64 -96s64 -64 96 -64s32 32 64 64z" />
    <glyph glyph-name="uniF13B" unicode="&#xf13b;" horiz-adv-x="480" 
d="M384 362c38 0 73 20 96 36v-297c-23 -16 -58 -37 -96 -37s-73 11 -96 27s-58 27 -96 27s-73 -19 -96 -35v298c23 16 58 35 96 35s73 -11 96 -27s58 -27 96 -27zM32 448c18 0 32 -14 32 -32v-480h-64v480c0 18 14 32 32 32z" />
    <glyph glyph-name="uniF11A" unicode="&#xf11a;" 
d="M512 233c0 -100 -30 -181 -66 -182h1h-42s-97 73 -237 102c-4 23 -7 49 -7 80s3 58 7 81c140 29 237 102 237 102h42h-1c36 -1 66 -83 66 -183zM432 78c5 0 10 5 13 8c6 7 12 18 17 32c12 31 18 71 18 115s-6 85 -18 116c-5 14 -11 25 -17 32c-3 3 -8 7 -13 7
s-9 -4 -12 -7c-6 -7 -13 -18 -18 -32c-12 -31 -18 -72 -18 -116s6 -84 18 -115c5 -14 12 -25 18 -32c3 -3 7 -8 12 -8zM126 233v0c0 -26 1 -51 5 -74c-24 3 -44 5 -70 5c-34 0 -33 0 -33 0l-28 47v44l28 48s-1 0 33 0c26 0 46 2 70 5c-4 -23 -5 -49 -5 -75zM184 127l62 -115
c4 -8 1 -16 -7 -19l-60 -24c-8 -3 -16 1 -18 9l-41 161zM432 174c-2 0 -3 2 -4 3c-2 3 -5 7 -7 12c-4 12 -7 27 -7 44s3 33 7 45c2 5 5 9 7 12c1 1 2 3 4 3s4 -2 5 -3c2 -3 5 -7 7 -12c4 -12 7 -28 7 -45s-3 -32 -7 -44c-2 -5 -5 -9 -7 -12c-1 -1 -3 -3 -5 -3z" />
    <glyph glyph-name="uniF162" unicode="&#xf162;" 
d="M502 226c13 -21 13 -47 0 -68l-80 -128c-12 -19 -32 -30 -54 -30h-304c-35 0 -64 29 -64 64v256c0 35 29 64 64 64h304c22 0 42 -11 54 -30zM475 175c6 10 6 24 0 34l-80 128c-6 9 -16 15 -27 15h-304c-18 0 -32 -14 -32 -32v-256c0 -18 14 -32 32 -32h304
c11 0 21 6 27 15zM368 240c26 0 48 -21 48 -48c0 -26 -22 -48 -48 -48c-27 0 -48 21 -48 48s21 48 48 48zM368 160c18 0 32 14 32 32s-14 32 -32 32s-32 -14 -32 -32s14 -32 32 -32z" />
    <glyph glyph-name="uniF10E" unicode="&#xf10e;" horiz-adv-x="384" 
d="M375 247c12 -12 12 -34 0 -46c-6 -6 -15 -9 -23 -9s-17 3 -23 9l-105 106v-307c0 -18 -14 -32 -32 -32s-32 14 -32 32v307l-105 -106c-12 -12 -34 -12 -46 0s-12 34 0 46l160 160c12 12 34 12 46 0z" />
    <glyph glyph-name="uniF10F" unicode="&#xf10f;" horiz-adv-x="440" 
d="M410 79v0l-190 183l-190 -183c-7 -7 -18 -7 -25 0s-7 18 0 25l203 201c7 7 18 7 25 0l202 -201c7 -7 7 -18 0 -25s-18 -7 -25 0z" />
    <glyph glyph-name="uniF110" unicode="&#xf110;" horiz-adv-x="293" 
d="M293 130c0 -5 -2 -9 -6 -13s-8 -5 -13 -5h-256c-5 0 -9 1 -13 5s-5 8 -5 13s1 9 5 13l128 128c4 4 8 6 13 6s9 -2 13 -6l128 -128c4 -4 6 -8 6 -13z" />
    <glyph glyph-name="uniF133" unicode="&#xf133;" 
d="M366 247c0 5 -2 9 -6 13s-8 5 -13 5c-33 0 -62 -5 -90 -14s-53 -22 -75 -38s-44 -37 -67 -63c-4 -4 -5 -8 -5 -13s1 -9 5 -13s8 -5 13 -5s9 1 13 5l21 21s15 14 19 18c26 24 52 41 77 51s54 15 89 15c5 0 9 1 13 5s6 8 6 13zM512 303c0 -18 -2 -36 -6 -55
c-9 -43 -26 -79 -52 -109s-61 -56 -103 -77c-41 -21 -82 -31 -125 -31c-28 0 -55 5 -81 14c-3 1 -12 5 -26 12s-23 10 -27 10c-3 0 -7 -3 -11 -9s-9 -13 -13 -20s-9 -14 -15 -20s-11 -9 -17 -9s-11 1 -15 3s-7 5 -9 7s-4 6 -7 12c0 1 -1 2 -2 3s-2 2 -2 3s-1 2 -1 3v4
c0 7 3 14 9 21s12 13 19 18s14 10 20 16s9 10 9 14c0 1 -1 5 -4 11s-5 11 -5 13c-2 10 -3 19 -3 29c0 22 5 43 13 63s20 38 34 53s31 29 49 40s37 20 58 27c10 3 24 6 41 7s35 3 52 3s34 0 51 1s32 3 46 7s26 9 33 16l8 9l9 8l7 6l11 4l12 1c7 0 14 -4 20 -13s11 -19 14 -32
s5 -24 7 -35s2 -21 2 -28v0z" />
    <glyph glyph-name="uniF153" unicode="&#xf153;" horiz-adv-x="192" 
d="M128 256h64l-8 -64h-56v-192h-83v192h-45v64h45v43c0 54 23 85 91 85h56v-64h-34c-27 0 -30 -9 -30 -26v-38z" />
    <glyph glyph-name="uniF10A" unicode="&#xf10a;" horiz-adv-x="448" 
d="M279 9c-12 -12 -34 -12 -46 0c-6 6 -9 15 -9 23s3 17 9 23l106 105h-307c-18 0 -32 14 -32 32s14 32 32 32h307l-106 105c-12 12 -12 34 0 46s34 12 46 0l160 -160c12 -12 12 -34 0 -46z" />
    <glyph glyph-name="uniF147" unicode="&#xf147;" 
d="M142 334c0 76 38 114 114 114s114 -38 114 -114s-38 -114 -114 -114s-114 38 -114 114zM502 50c7 -7 10 -14 10 -22v-92h-512v92c0 8 3 15 10 22c61 61 143 91 246 91s185 -30 246 -91z" />
    <glyph glyph-name="uniF10D" unicode="&#xf10d;" horiz-adv-x="165" 
d="M165 192c0 -5 -2 -9 -6 -13l-128 -128c-4 -4 -8 -5 -13 -5s-9 1 -13 5s-5 8 -5 13v256c0 5 1 9 5 13s8 5 13 5s9 -1 13 -5l128 -128c4 -4 6 -8 6 -13z" />
    <glyph glyph-name="uniF10B" unicode="&#xf10b;" horiz-adv-x="174" 
d="M50 332c11 -10 116 -120 116 -120c6 -6 8 -13 8 -20s-2 -14 -8 -20c0 0 -105 -110 -116 -120s-30 -11 -41 0s-12 26 0 40l96 100l-96 100c-12 14 -11 29 0 40s30 10 41 0z" />
    <glyph glyph-name="uniF10C" unicode="&#xf10c;" horiz-adv-x="236" 
d="M5 2l183 190l-183 190c-7 7 -7 18 0 25s18 7 25 0l200 -202c7 -7 7 -19 0 -26l-200 -202c-7 -7 -18 -7 -25 0s-7 18 0 25z" />
    <glyph glyph-name="uniF181" unicode="&#xf181;" horiz-adv-x="256" 
d="M0 320h43v-256h-43v256zM75 192l181 128v-256z" />
    <glyph glyph-name="uniF15D" unicode="&#xf15d;" 
d="M503 327c6 -6 9 -15 9 -23v-304c0 -26 -22 -48 -48 -48h-416c-26 0 -48 22 -48 48v384c0 26 22 48 48 48h336c8 0 17 -3 23 -9zM480 0v288h-64c-26 0 -48 21 -48 48v0v64h-320c-9 0 -16 -7 -16 -16v-384c0 -9 7 -16 16 -16h416c9 0 16 7 16 16zM432 304h48l-96 96v-64v0
c0 -18 14 -32 32 -32h16zM248 320c-4 0 -8 4 -8 8s4 8 8 8h80c4 0 8 -4 8 -8s-4 -8 -8 -8h-80zM248 272c-4 0 -8 4 -8 8s4 8 8 8h80c4 0 8 -4 8 -8s-4 -8 -8 -8h-80zM240 232c0 4 4 8 8 8h192c4 0 8 -4 8 -8s-4 -8 -8 -8h-192c-4 0 -8 4 -8 8zM440 144c4 0 8 -4 8 -8
s-4 -8 -8 -8h-368c-4 0 -8 4 -8 8s4 8 8 8h368zM440 96c4 0 8 -4 8 -8s-4 -8 -8 -8h-368c-4 0 -8 4 -8 8s4 8 8 8h368zM440 48c4 0 8 -4 8 -8s-4 -8 -8 -8h-368c-4 0 -8 4 -8 8s4 8 8 8h368zM440 192c4 0 8 -4 8 -8s-4 -8 -8 -8h-368c-4 0 -8 4 -8 8s4 8 8 8h368zM80 224
c-9 0 -16 7 -16 16v96c0 9 7 16 16 16h112c9 0 16 -7 16 -16v-96c0 -9 -7 -16 -16 -16h-112zM96 320v-64h80v64h-80z" />
    <glyph glyph-name="uniF1AE" unicode="&#xf1ae;" 
d="M512 249l-128 -124l30 -176l-158 83l-158 -83l30 176l-128 124l177 26l79 160l79 -160zM256 71v0l112 -58l-22 124l91 88l-125 18l-56 113v-285v0z" />
    <glyph glyph-name="uniF154" unicode="&#xf154;" horiz-adv-x="256" 
d="M16 228v0v0zM256 320c0 -11 -6 -21 -14 -27v0c-2 -1 -3 -5 -3 -7c-1 -20 -3 -36 -9 -50c-7 -19 -20 -33 -39 -46c-17 -12 -29 -21 -36 -34c-7 -12 -11 -28 -11 -53v-24c0 -7 2 -13 10 -18c4 -2 7 -6 10 -9c8 -9 14 -21 14 -34c0 -28 -22 -50 -50 -50s-50 22 -50 50v1v0
c0 18 10 33 24 42c5 4 9 5 9 18v0c0 14 -3 17 -10 27s-18 17 -32 26c-19 13 -33 27 -40 46c-6 15 -8 31 -9 39s-2 9 -4 11c-10 6 -16 16 -16 28c0 18 14 32 32 32s32 -14 32 -32c0 -10 -4 -20 -12 -26c-3 -2 -4 -11 -4 -14v0v0c0 -9 3 -18 7 -28c10 -21 45 -44 52 -44
s8 5 8 12v196s-1 2 -3 4h-1v1v0c-9 6 -15 16 -15 27c0 18 14 32 32 32s32 -14 32 -32c0 -11 -5 -21 -14 -27v0c-2 -2 -2 -3 -2 -5v-140c0 -10 2 -12 8 -11c13 3 48 30 52 43c3 10 6 23 7 41v1c0 2 -2 4 -3 6c-10 6 -16 16 -16 28c0 18 14 32 32 32s32 -14 32 -32zM32 240
c9 0 16 7 16 16s-7 16 -16 16s-16 -7 -16 -16s7 -16 16 -16zM128 368c9 0 16 7 16 16s-7 16 -16 16s-16 -7 -16 -16s7 -16 16 -16zM224 304c9 0 16 7 16 16s-7 16 -16 16s-16 -7 -16 -16s7 -16 16 -16z" />
    <glyph glyph-name="uniF100" unicode="&#xf100;" 
d="M448 320c35 0 64 -29 64 -64v-256c0 -35 -29 -64 -64 -64h-384c-35 0 -64 29 -64 64v256c0 35 29 64 64 64h96v64c0 18 14 32 32 32h128c18 0 32 -14 32 -32v-64h96zM192 384v-64h128v64h-128zM384 96v64h-96v96h-64v-96h-96v-64h96v-96h64v96h96z" />
    <glyph glyph-name="uniF19A" unicode="&#xf19a;" 
d="M0 240c0 9 7 16 16 16h480c9 0 16 -7 16 -16v-96c0 -9 -7 -16 -16 -16h-480c-9 0 -16 7 -16 16v96z" />
    <glyph glyph-name="uniF144" unicode="&#xf144;" horiz-adv-x="528" 
d="M304 416c124 0 224 -100 224 -224s-100 -224 -224 -224v48c47 0 91 19 124 52s52 77 52 124s-19 91 -52 124s-77 52 -124 52s-91 -19 -124 -52c-26 -26 -43 -57 -49 -92h93l-112 -128l-112 128h82c16 109 109 192 222 192zM400 224v-64h-128v160h64v-96h64z" />
    <glyph glyph-name="uniF142" unicode="&#xf142;" 
d="M512 269c0 -43 -18 -82 -48 -109v0l-160 -160c-16 -16 -32 -32 -48 -32s-32 16 -48 32l-160 160c-30 27 -48 66 -48 109c0 81 66 147 147 147c43 0 82 -18 109 -48c27 30 66 48 109 48c81 0 147 -66 147 -147z" />
    <glyph glyph-name="uniF1BA" unicode="&#xf1ba;" horiz-adv-x="384" 
d="M96 352c0 53 43 96 96 96s96 -43 96 -96s-43 -96 -96 -96s-96 43 -96 96zM320 224c64 0 64 -43 64 -96v-160h-384v160c0 53 0 96 64 96h18l99 -202l-37 186l48 48l48 -48l-37 -186l99 202h18z" />
    <glyph glyph-name="uniF14E" unicode="&#xf14e;" horiz-adv-x="384" 
d="M384 64h-384v242l131 -100l-68 -77l2 -2l79 70l48 -37l48 37l79 -70l2 2l-68 77l131 100v-242zM376 320l-184 -140l-184 140h368z" />
    <glyph glyph-name="uniF150" unicode="&#xf150;" horiz-adv-x="256" 
d="M256 183h-120v-119h-17v119h-119v17h119v120h17v-120h120v-17z" />
    <glyph glyph-name="uniF1AA" unicode="&#xf1aa;" 
d="M432 96c44 0 80 -36 80 -80s-36 -80 -80 -80s-80 36 -80 80c0 4 0 9 1 13l-215 107c-15 -15 -35 -24 -58 -24c-44 0 -80 36 -80 80s36 80 80 80c23 0 43 -9 58 -24l215 107c-1 4 -1 9 -1 13c0 44 36 80 80 80s80 -36 80 -80s-36 -80 -80 -80c-23 0 -43 9 -58 24
l-215 -107c1 -4 1 -9 1 -13s0 -9 -1 -13l215 -107c15 15 35 24 58 24z" />
    <glyph glyph-name="uniF183" unicode="&#xf183;" horiz-adv-x="427" 
d="M427 251l-117 -101l35 -150l-132 80l-132 -80l35 150l-116 101l153 13l60 141l60 -141zM213 119l81 -48l-22 91l71 62l-93 8l-37 86l-36 -86l-93 -8l70 -62l-21 -91z" />
    <glyph glyph-name="uniF12C" unicode="&#xf12c;" 
d="M352 352l160 -192v-128c0 -18 -14 -32 -32 -32h-448c-18 0 -32 14 -32 32v128l160 192h192zM384 160v0h86l-133 160h-162l-133 -160h86l64 -64h128z" />
    <glyph glyph-name="uniF1A9" unicode="&#xf1a9;" 
d="M256 448c141 0 256 -115 256 -256s-115 -256 -256 -256s-256 115 -256 256s115 256 256 256zM352 320c-18 0 -32 -14 -32 -32s14 -32 32 -32s32 14 32 32s-14 32 -32 32zM160 320c-18 0 -32 -14 -32 -32s14 -32 32 -32s32 14 32 32s-14 32 -32 32zM352 58l41 24
c-28 47 -79 78 -137 78s-109 -31 -137 -78l41 -24c20 33 55 54 96 54s76 -21 96 -54z" />
    <glyph glyph-name="uniF16A" unicode="&#xf16a;" horiz-adv-x="341" 
d="M341 213v-42h-259l119 -119l-30 -31l-171 171l171 171l30 -31l-119 -119h259z" />
    <glyph glyph-name="uniF120" unicode="&#xf120;" 
d="M507 37c2 -2 3 -4 4 -6c2 -6 1 -12 -4 -17l-73 -73c-5 -5 -11 -6 -17 -4c-2 1 -4 2 -6 4v0l-155 155l-155 -155v0c-2 -2 -4 -3 -6 -4c-6 -2 -12 -1 -17 4l-73 73c-5 5 -6 11 -4 17c1 2 2 4 4 6v0l155 155l-155 155v0c-2 2 -3 4 -4 6c-2 6 -1 12 4 17l73 73c5 5 11 6 17 4
c2 -1 4 -2 6 -4v0l155 -155l155 155v0c2 2 4 3 6 4c6 2 12 1 17 -4l73 -73c5 -5 6 -11 4 -17c-1 -2 -2 -4 -4 -6v0l-155 -155l155 -155v0z" />
    <glyph glyph-name="uniF101" unicode="&#xf101;" 
d="M384 128v0h128v-64l-96 -32l-32 -96h-64v128l-91 91l-165 -219l-64 64l110 274l-87 87c-25 25 -31 59 -13 77s52 12 77 -13l87 -87l274 110l64 -64l-219 -165z" />
    <glyph glyph-name="uniF13A" unicode="&#xf13a;" 
d="M0 384h512v-384h-512v384zM96 32v64h-64v-64h64zM96 160v64h-64v-64h64zM96 288v64h-64v-64h64zM384 32v320h-256v-320h256zM480 32v64h-64v-64h64zM480 160v64h-64v-64h64zM480 288v64h-64v-64h64zM192 288l128 -96l-128 -96v192z" />
    <glyph glyph-name="uniF134" unicode="&#xf134;" 
d="M512 128c0 -32 -12 -75 -36 -129c-1 -1 -2 -4 -3 -7s-3 -6 -4 -8s-3 -5 -4 -7c-2 -3 -5 -4 -8 -4s-5 0 -7 2s-2 5 -2 8c0 2 1 4 1 7v7c1 13 2 25 2 35c0 19 -2 37 -5 52s-8 28 -14 39s-14 21 -23 29s-19 15 -30 20s-23 9 -38 12s-29 5 -44 6s-31 2 -50 2h-64v-73
c0 -5 -2 -9 -6 -13s-7 -5 -12 -5s-9 1 -13 5l-147 146c-4 4 -5 8 -5 13s1 9 5 13l147 146c4 4 8 6 13 6s8 -2 12 -6s6 -8 6 -13v-73h64c136 0 219 -38 250 -115c10 -26 15 -57 15 -95v0z" />
    <glyph glyph-name="uniF109" unicode="&#xf109;" horiz-adv-x="165" 
d="M165 320v-256c0 -5 -2 -9 -6 -13s-8 -5 -13 -5s-9 1 -13 5l-128 128c-4 4 -5 8 -5 13s1 9 5 13l128 128c4 4 8 5 13 5s9 -1 13 -5s6 -8 6 -13z" />
    <glyph glyph-name="uniF103" unicode="&#xf103;" horiz-adv-x="384" 
d="M9 137c-12 12 -12 34 0 46c6 6 15 9 23 9s17 -3 23 -9l105 -106v307c0 18 14 32 32 32s32 -14 32 -32v-307l105 106c12 12 34 12 46 0s12 -34 0 -46l-160 -160c-12 -12 -34 -12 -46 0z" />
    <glyph glyph-name="uniF107" unicode="&#xf107;" horiz-adv-x="174" 
d="M124 332c11 10 30 11 41 0s12 -26 0 -40l-96 -100l96 -100c12 -14 11 -29 0 -40s-30 -10 -41 0s-115 120 -115 120c-6 6 -9 13 -9 20s3 14 9 20c0 0 104 110 115 120z" />
    <glyph glyph-name="uniF108" unicode="&#xf108;" horiz-adv-x="236" 
d="M230 2c7 -7 7 -18 0 -25s-17 -7 -24 0l-201 202c-7 7 -7 19 0 26l201 202c7 7 17 7 24 0s7 -18 0 -25l-182 -190z" />
    <glyph glyph-name="uniF106" unicode="&#xf106;" horiz-adv-x="448" 
d="M169 375c12 12 34 12 46 0c6 -6 9 -15 9 -23s-3 -17 -9 -23l-106 -105h307c18 0 32 -14 32 -32s-14 -32 -32 -32h-307l106 -105c12 -12 12 -34 0 -46s-34 -12 -46 0l-160 160c-12 12 -12 34 0 46z" />
    <glyph glyph-name="uniF105" unicode="&#xf105;" horiz-adv-x="293" 
d="M293 258c0 -5 -2 -9 -6 -13l-128 -128c-4 -4 -8 -5 -13 -5s-9 1 -13 5l-128 128c-4 4 -5 8 -5 13s1 9 5 13s8 6 13 6h256c5 0 9 -2 13 -6s6 -8 6 -13z" />
    <glyph glyph-name="uniF104" unicode="&#xf104;" horiz-adv-x="440" 
d="M30 305v0l190 -183l190 183c7 7 18 7 25 0s7 -18 0 -25l-202 -201c-7 -7 -18 -7 -25 0l-203 201c-7 7 -7 18 0 25s18 7 25 0z" />
    <glyph glyph-name="uniF195" unicode="&#xf195;" 
d="M400 384c62 0 112 -50 112 -112s-50 -112 -112 -112c-14 0 -27 2 -40 7c-29 -25 -65 -39 -104 -39c-38 0 -75 14 -104 39c-13 -5 -26 -7 -40 -7c-62 0 -112 50 -112 112s50 112 112 112c5 0 11 0 16 -1c30 41 77 65 128 65s98 -24 128 -65c5 1 11 1 16 1zM400 192v0
c44 0 80 36 80 80s-36 80 -80 80c-4 0 -7 0 -11 -1l-19 -3l-12 16c-24 33 -61 52 -102 52s-78 -19 -102 -52l-12 -16l-19 3c-4 1 -7 1 -11 1c-44 0 -80 -36 -80 -80s36 -80 80 -80c10 0 19 2 28 5l18 7l15 -13c23 -20 53 -31 83 -31s60 11 83 31l15 13l18 -7
c9 -3 18 -5 28 -5zM96 128c18 0 32 -14 32 -32s-14 -32 -32 -32s-32 14 -32 32s14 32 32 32zM256 96c18 0 32 -14 32 -32s-14 -32 -32 -32s-32 14 -32 32s14 32 32 32zM416 128c18 0 32 -14 32 -32s-14 -32 -32 -32s-32 14 -32 32s14 32 32 32zM352 0c18 0 32 -14 32 -32
s-14 -32 -32 -32s-32 14 -32 32s14 32 32 32zM160 0c18 0 32 -14 32 -32s-14 -32 -32 -32s-32 14 -32 32s14 32 32 32z" />
    <glyph glyph-name="uniF14B" unicode="&#xf14b;" horiz-adv-x="207" 
d="M74 118c-2 -2 -6 -4 -9 -4s-7 2 -9 4l-56 56l18 18l47 -47l125 126l17 -18z" />
    <glyph glyph-name="uniF126" unicode="&#xf126;" horiz-adv-x="507" 
d="M253 218c42 0 81 -17 109 -45l-36 -37c-19 19 -45 30 -73 30s-53 -11 -72 -30l-36 37c28 28 66 45 108 45zM72 245c48 48 113 75 181 75s133 -27 181 -75l-36 -36c-39 39 -90 60 -145 60s-105 -21 -144 -60zM393 394c43 -18 81 -44 114 -77v0l-36 -36
c-58 58 -136 90 -218 90s-159 -32 -217 -90l-36 36c33 33 71 59 114 77c44 19 91 28 139 28s96 -9 140 -28v0zM228 90c0 14 11 25 25 25s26 -11 26 -25s-12 -26 -26 -26s-25 12 -25 26z" />
    <glyph glyph-name="uniF116" unicode="&#xf116;" horiz-adv-x="448" 
d="M416 384h32v-448h-384c-35 0 -64 29 -64 64v384c0 35 29 64 64 64h320v-384h-304c-27 0 -48 -21 -48 -48s21 -48 48 -48h336v416zM96 32h288v-32h-288v32z" />
    <glyph glyph-name="uniF111" unicode="&#xf111;" horiz-adv-x="448" 
d="M317 284v0l-162 -162c-9 -9 -9 -23 0 -32s23 -9 32 0l195 194c27 27 27 71 0 98s-71 27 -98 0l-204 -205v0h-1c-45 -45 -45 -117 0 -162s117 -45 162 0v1l140 139l33 -32l-140 -140v0h-1c-63 -63 -163 -63 -226 0s-63 163 0 226v1l205 204c45 45 117 45 162 0
s45 -117 0 -162l-195 -195c-27 -27 -70 -27 -97 0s-27 71 0 98l162 162z" />
    <glyph glyph-name="uniF143" unicode="&#xf143;" 
d="M512 269c0 -43 -18 -82 -48 -109l-160 -160c-16 -16 -32 -32 -48 -32s-32 16 -48 32l-160 160v0c-30 27 -48 66 -48 109c0 81 66 147 147 147c43 0 82 -18 109 -48c27 30 66 48 109 48c81 0 147 -66 147 -147zM421 207c18 16 27 38 27 62c0 46 -37 83 -83 83
c-24 0 -46 -9 -62 -27l-47 -52l-47 52c-16 18 -38 27 -62 27c-46 0 -83 -37 -83 -83c0 -24 9 -46 27 -62l162 -162c1 -1 2 -1 3 -2c1 1 2 1 3 2z" />
    <glyph glyph-name="uniF102" unicode="&#xf102;" horiz-adv-x="448" 
d="M224 384c124 0 224 -100 224 -224s-100 -224 -224 -224s-224 100 -224 224s100 224 224 224zM224 -20c99 0 180 81 180 180s-81 180 -180 180s-180 -81 -180 -180s81 -180 180 -180zM435 304v0c-37 54 -93 93 -159 107c18 23 45 37 76 37c53 0 96 -43 96 -96
c0 -17 -5 -34 -13 -48zM172 411c-66 -14 -122 -53 -159 -107c-8 14 -13 31 -13 48c0 53 43 96 96 96c31 0 58 -14 76 -37zM192 288h32v-160h-32v160zM224 160v-32h96v32h-96z" />
    <glyph glyph-name="uniF123" unicode="&#xf123;" 
d="M446 255c37 -7 66 -40 66 -79c0 -44 -36 -80 -80 -80h-112v-96h-128v96h-64c-71 0 -128 57 -128 128s57 128 128 128c12 0 25 -2 36 -5c12 40 48 69 92 69c43 0 79 -28 91 -67c7 2 14 3 21 3c44 0 80 -36 80 -80c0 -6 -1 -11 -2 -17zM288 128h80l-112 112l-112 -112h80
v-96h64v96z" />
    <glyph glyph-name="uniF135" unicode="&#xf135;" horiz-adv-x="516" 
d="M344 44c0 -2 0 -4 -2 -6s-4 -3 -6 -3h-259h-3s-2 1 -3 2s-1 2 -1 3s-1 1 -1 3v3v161h-52c-5 0 -9 2 -12 5s-5 7 -5 12c0 4 1 8 4 11l86 104c3 4 8 5 13 5s10 -1 13 -5l86 -104c3 -3 5 -7 5 -11c0 -5 -3 -9 -6 -12s-7 -5 -12 -5h-51v-103h155c3 0 4 -1 6 -3l43 -52
c1 -2 2 -3 2 -5v0zM516 155c0 -4 -1 -8 -4 -11l-86 -103c-4 -4 -8 -6 -13 -6s-9 2 -13 6l-86 103c-3 3 -4 7 -4 11c0 5 2 10 5 13s7 5 12 5h52v103h-155c-3 0 -5 1 -7 3l-43 52c-1 2 -2 3 -2 5s1 4 3 6s4 3 6 3h258c1 0 3 -1 4 -1s1 -1 2 -2s1 -1 1 -2s1 -1 1 -3s1 -2 1 -3
v-161h51c5 0 9 -2 12 -5s5 -8 5 -13v0z" />
    <glyph glyph-name="uniF161" unicode="&#xf161;" 
d="M500 345c10 -8 14 -22 10 -35l-32 -96c-3 -9 -11 -17 -20 -20c-3 -1 -6 -2 -10 -2c-6 0 -11 1 -16 4v-196c0 -18 -14 -32 -32 -32h-288c-18 0 -32 14 -32 32v196c-5 -3 -10 -4 -16 -4c-3 0 -7 1 -10 2c-9 3 -17 11 -20 20l-32 96c-4 13 0 27 10 35l80 64c6 5 13 7 20 7
h288c7 0 14 -2 20 -7zM316 384h-120c9 -19 32 -32 60 -32s51 13 60 32zM448 224l32 96l-80 64h-67c-9 -28 -40 -48 -77 -48s-68 20 -77 48h-67l-80 -64l32 -96l48 32v-256h288v256z" />
    <glyph glyph-name="uniF175" unicode="&#xf175;" horiz-adv-x="158" 
d="M158 100l-30 -31l-128 128l128 128l30 -30l-98 -98z" />
    <glyph glyph-name="uniF169" unicode="&#xf169;" 
d="M0 352l160 64v-384l-160 -64v384zM352 352v-384l-160 53v384zM512 416v-384l-128 -51v384z" />
    <glyph glyph-name="uniF18B" unicode="&#xf18b;" 
d="M512 208v0c0 -23 -9 -44 -24 -60c15 -19 24 -42 24 -68c0 -62 -50 -112 -112 -112c-14 0 -27 2 -40 7c-29 -25 -65 -39 -104 -39c-38 0 -75 14 -104 39c-13 -5 -26 -7 -40 -7c-62 0 -112 50 -112 112s50 112 112 112c5 0 11 0 16 -1l2 2c-1 5 -2 10 -2 15
c0 49 40 89 89 89h7c23 29 58 46 96 46s73 -17 96 -46h7c49 0 89 -40 89 -89zM400 0v0c44 0 80 36 80 80c0 18 -7 35 -17 49c-8 10 -18 18 -29 23c-10 5 -22 8 -34 8l-13 -1c-6 -1 -11 -3 -17 -5c-21 41 -64 70 -114 70c-36 0 -68 -15 -91 -39c-8 -8 -15 -18 -21 -28
c-1 -1 -1 -2 -2 -3c-9 4 -19 6 -30 6c-44 0 -80 -36 -80 -80s36 -80 80 -80c17 0 33 6 46 15c23 -28 58 -47 98 -47s75 19 98 47c13 -9 29 -15 46 -15zM466 170v0c9 10 14 24 14 38c0 32 -25 57 -57 57c-8 0 -15 -1 -22 -4c-15 30 -46 50 -81 50s-66 -20 -81 -50
c-7 3 -14 4 -22 4c-25 0 -47 -16 -54 -39c27 19 59 30 93 30c51 0 98 -24 128 -65c5 1 11 1 16 1c25 0 48 -9 66 -22z" />
    <glyph glyph-name="uniF1AD" unicode="&#xf1ad;" 
d="M512 249l-128 -124l30 -176l-158 83l-158 -83l30 176l-128 124l177 26l79 160l79 -160zM256 71v0l112 -58l-22 124l91 88l-125 18l-56 113l-56 -113l-125 -18l91 -88l-22 -124z" />
    <glyph glyph-name="uniF19F" unicode="&#xf19f;" horiz-adv-x="384" 
d="M0 384h160v-384h-160v384zM224 384h160v-384h-160v384z" />
    <glyph glyph-name="uniF149" unicode="&#xf149;" horiz-adv-x="256" 
d="M12 304c16 16 18 13 19 12l68 -65v0v0c2 -2 10 -10 10 -3v156v0v2c0 6 6 10 12 10c4 0 7 -2 9 -4v0s117 -113 122 -117s5 -10 1 -14l-84 -81s-4 -4 -4 -8s4 -8 4 -8l84 -81c4 -4 4 -10 -1 -14s-122 -117 -122 -117v0c-2 -2 -5 -4 -9 -4c-6 0 -12 4 -12 10v2v0v156
s-8 -1 -10 -3v0v-1l-68 -64c-1 -1 -3 -4 -19 12s-12 17 -11 18s90 86 90 86s4 3 4 8v0c0 5 -4 8 -4 8s-89 85 -90 86s-5 2 11 18zM152 328v-79c0 -8 8 -1 10 1l30 30s3 5 3 7s-1 5 -3 7l-30 30c-2 2 -10 11 -10 4zM152 135v-79s8 2 10 4l30 30c2 2 3 5 3 7s-1 5 -3 7l-30 30
c-2 2 -10 9 -10 1z" />
    <glyph glyph-name="uniF167" unicode="&#xf167;" horiz-adv-x="320" 
d="M296 224c13 0 24 -11 24 -24v-240c0 -13 -11 -24 -24 -24h-272c-13 0 -24 11 -24 24v240c0 13 11 24 24 24h8v96c0 53 43 96 96 96h64c53 0 96 -43 96 -96v-96h8zM192 0l-14 70c8 6 14 15 14 26c0 18 -14 32 -32 32s-32 -14 -32 -32c0 -11 6 -20 14 -26l-14 -70h64z
M224 224v96c0 18 -14 32 -32 32h-64c-18 0 -32 -14 -32 -32v-96h128z" />
    <glyph glyph-name="uniF15F" unicode="&#xf15f;" 
d="M486 245c15 -3 26 -16 26 -31v-44c0 -15 -11 -28 -26 -31l-49 -10c-2 -7 -5 -14 -8 -21l27 -41c8 -13 7 -30 -4 -41l-30 -30c-6 -6 -15 -10 -23 -10c-6 0 -13 2 -18 6l-41 27c-7 -3 -14 -6 -21 -8l-10 -49c-3 -15 -16 -26 -31 -26h-44c-15 0 -28 11 -31 26l-10 49
c-7 2 -14 5 -21 8l-41 -27c-5 -4 -12 -6 -18 -6c-8 0 -17 4 -23 10l-30 30c-11 11 -12 28 -4 41l27 41c-3 7 -6 14 -8 21l-49 10c-15 3 -26 16 -26 31v44c0 15 11 28 26 31l49 10c2 7 5 14 8 21l-27 41c-8 13 -7 30 4 41l30 30c6 6 15 10 23 10c6 0 13 -2 18 -6l41 -27
c7 3 14 6 21 8l10 49c3 15 16 26 31 26h44c15 0 28 -11 31 -26l10 -49c7 -2 14 -5 21 -8l41 27c5 4 12 6 18 6c8 0 17 -4 23 -10l30 -30c11 -11 12 -28 4 -41l-27 -41c3 -7 6 -14 8 -21zM431 160l49 10v44l-49 10c-11 2 -20 9 -24 20c-2 6 -4 12 -7 18c-5 10 -4 22 2 31
l28 42l-31 31l-42 -28c-5 -4 -11 -5 -17 -5c-5 0 -10 1 -14 3c-6 3 -12 5 -18 7c-11 4 -18 13 -20 24l-10 49h-44l-10 -49c-2 -11 -9 -20 -20 -24c-6 -2 -12 -4 -18 -7c-4 -2 -9 -3 -14 -3c-6 0 -12 1 -17 5l-42 28l-31 -31l28 -42c6 -9 7 -21 2 -31c-3 -6 -5 -12 -7 -18
c-4 -11 -13 -18 -24 -20l-49 -10v-44l49 -10c11 -2 20 -9 24 -20c2 -6 4 -12 7 -18c5 -10 4 -22 -2 -31l-28 -42l31 -31l42 28c5 4 11 5 17 5c5 0 10 -1 14 -3c6 -3 12 -5 18 -7c11 -4 18 -13 20 -24l10 -49h44l10 49c2 11 9 20 20 24c6 2 12 4 18 7c4 2 9 3 14 3
c6 0 12 -1 17 -5l42 -28l31 31l-28 42c-6 9 -7 21 -2 31c3 6 5 12 7 18c4 11 13 18 24 20zM256 304c62 0 112 -50 112 -112s-50 -112 -112 -112s-112 50 -112 112s50 112 112 112zM256 94c54 0 98 44 98 98s-44 98 -98 98s-98 -44 -98 -98s44 -98 98 -98zM256 256
c35 0 64 -29 64 -64s-29 -64 -64 -64s-64 29 -64 64s29 64 64 64zM256 144c26 0 48 22 48 48s-22 48 -48 48s-48 -22 -48 -48s22 -48 48 -48z" />
    <glyph glyph-name="uniF15A" unicode="&#xf15a;" 
d="M352 448c88 0 160 -72 160 -160s-72 -160 -160 -160c-21 0 -40 4 -58 11l-38 -37v-38c0 -18 -14 -32 -32 -32h-32v-32c0 -18 -14 -32 -32 -32h-37l-23 -23c-6 -6 -11 -9 -20 -9h-48c-17 0 -32 15 -32 32v48c0 9 3 14 9 20l194 194c-7 18 -11 37 -11 58
c0 88 72 160 160 160zM352 160c71 0 128 57 128 128s-57 128 -128 128s-128 -57 -128 -128c0 -24 7 -46 18 -65l-23 -23v0l-187 -186v-46h45l23 23c6 6 15 9 23 9h37v32c0 18 14 32 32 32h32v38c0 8 3 16 9 22l49 49l5 5c19 -11 41 -18 65 -18zM445 316c2 -3 3 -6 3 -9
c0 -2 0 -3 -1 -5c-8 -22 -23 -37 -45 -45c-5 -2 -10 -1 -14 2c-25 18 -47 40 -65 65c-2 3 -3 6 -3 9c0 2 0 3 1 5c8 22 23 37 45 45c5 2 10 1 14 -2c25 -18 47 -40 65 -65zM397 272c17 6 29 17 35 35c-17 23 -37 44 -61 61c-17 -6 -29 -17 -35 -35c17 -23 37 -44 61 -61z
" />
    <glyph glyph-name="uniF1AC" unicode="&#xf1ac;" 
d="M512 288l-256 -128l-256 128l256 128zM256 374l-171 -86l171 -86l171 86zM461 218l51 -26l-256 -128l-256 128l51 26l205 -103zM461 122l51 -26l-256 -128l-256 128l51 26l205 -103z" />
    <glyph glyph-name="uniF187" unicode="&#xf187;" horiz-adv-x="341" 
d="M256 171l-85 -86l-86 86h64v213h43v-213h64zM0 43h341v-43h-341v43z" />
    <glyph glyph-name="uniF12D" unicode="&#xf12d;" horiz-adv-x="384" 
d="M384 131v0v-3v-4v0c-2 -104 -87 -188 -192 -188s-190 84 -192 188v0v4v3v1v2c5 158 192 314 192 314s187 -156 192 -314v-2v-1zM320 126v0v2v2v1v1v0c-1 30 -12 65 -32 102c1 -9 2 -19 2 -29c0 -87 -46 -163 -116 -204c6 -1 12 -1 18 -1c34 0 66 13 90 37s37 54 38 88v1z
" />
    <glyph glyph-name="uniF186" unicode="&#xf186;" horiz-adv-x="384" 
d="M0 85h128v-42h-128v42zM0 341h213v-42h-213v42zM213 0h-42v128h42v-43h171v-42h-171v-43zM85 256h43v-128h-43v43h-85v42h85v43zM384 171h-213v42h213v-42zM256 256v128h43v-43h85v-42h-85v-43h-43z" />
    <glyph glyph-name="uniF151" unicode="&#xf151;" horiz-adv-x="192" 
d="M168 384c13 0 24 -11 24 -24v-336c0 -13 -11 -24 -24 -24h-144c-13 0 -24 11 -24 24v336c0 13 11 24 24 24h144zM80 348v0c0 -2 2 -4 4 -4h24c2 0 4 2 4 4v0c0 2 -2 4 -4 4h-24c-2 0 -4 -2 -4 -4zM68 352c-2 0 -4 -2 -4 -4s2 -4 4 -4s4 2 4 4s-2 4 -4 4zM96 16
c9 0 16 7 16 16s-7 16 -16 16s-16 -7 -16 -16s7 -16 16 -16zM176 64v256h-160v-256h160z" />
    <glyph glyph-name="uniF19B" unicode="&#xf19b;" horiz-adv-x="320" 
d="M272 448c26 0 48 -22 48 -48v-416c0 -26 -22 -48 -48 -48h-224c-26 0 -48 22 -48 48v416c0 26 22 48 48 48h224zM96 424v-16h128v16h-128zM160 -32c18 0 32 14 32 32s-14 32 -32 32s-32 -14 -32 -32s14 -32 32 -32zM288 64v320h-256v-320h256z" />
    <glyph glyph-name="uniF127" unicode="&#xf127;" horiz-adv-x="384" 
d="M368 384c9 0 16 -7 16 -16v-316l-116 -116h-252c-9 0 -16 7 -16 16v416c0 9 7 16 16 16h32v-32h-16v-384h192v128h128v256h-16v32h32zM256 -32l96 96h-96v-96zM320 384v-64h-256v64h64v32c0 18 14 32 32 32h64c18 0 32 -14 32 -32v-32h64zM224 384v0v32v0h-64v0v-32h64z
" />
    <glyph glyph-name="uniF128" unicode="&#xf128;" 
d="M320 320h192v-384h-320v128h-192v288l96 96h224v-128zM96 403l-51 -51h51v51zM32 96h160v128l96 96v96h-160v-96h-96v-224zM288 275l-51 -51h51v51zM480 -32v320h-160v-96h-96v-224h256z" />
    <glyph glyph-name="uniF15C" unicode="&#xf15c;" 
d="M400 448c74 0 112 -113 112 -224s-38 -224 -112 -224c-33 0 -58 22 -77 57h-1c-25 49 -62 82 -102 86c-1 0 -3 0 -4 -1v0v-1c-2 -1 -4 -2 -5 -4c0 0 -1 -1 -1 -2c-1 -2 -2 -4 -2 -6v-1v-112c0 -9 16 -16 16 -32v-16c0 -18 -14 -32 -32 -32h-64c-18 0 -32 14 -32 32v144
c0 18 -14 32 -32 32c-36 0 -64 35 -64 80s28 80 64 80h148c44 0 83 34 110 87h1c19 35 44 57 77 57zM320 224c0 -17 1 -33 3 -48h45c18 0 32 21 32 48c0 26 -14 48 -32 48h-45c-2 -15 -3 -31 -3 -48zM32 224c0 -27 14 -48 32 -48h112c-10 12 -16 29 -16 48s6 36 16 48h-112
c-18 0 -32 -22 -32 -48zM192 -32v14l-2 2c-5 6 -14 17 -14 32v112c0 6 1 11 3 16h-49v0h-11c5 -9 9 -20 9 -32v-144h64zM212 176c30 0 58 -12 83 -32c-5 26 -7 53 -7 80s2 54 7 80c-25 -20 -53 -32 -83 -32h-4c-18 0 -32 -22 -32 -48c0 -27 14 -48 32 -48v0h4zM400 32
c44 0 80 86 80 192s-36 192 -80 192c-32 0 -60 -46 -73 -112h41c36 0 64 -35 64 -80s-28 -80 -64 -80h-41c13 -66 41 -112 73 -112z" />
    <glyph glyph-name="uniF165" unicode="&#xf165;" 
d="M477 411v0c47 -47 47 -125 0 -172l-77 -76c0 22 -3 45 -12 66l49 50c26 26 26 66 0 92l-2 2c-26 26 -66 26 -92 0l-109 -109c-26 -26 -26 -66 0 -92l2 -2c4 -4 8 -7 13 -10l-40 -40c-4 3 -9 6 -13 10l-2 2c-47 47 -47 125 0 172l110 109c47 47 124 47 171 0zM316 254v0
l2 -2c47 -47 47 -125 0 -172l-110 -109c-47 -47 -124 -47 -171 0l-2 2c-47 47 -47 124 0 171l77 77c0 -22 3 -45 12 -66l-49 -50c-26 -26 -26 -66 0 -92l2 -2c26 -26 66 -26 92 0l109 109c26 26 26 66 0 92l-2 2c-4 4 -8 7 -13 10l40 40c4 -3 9 -6 13 -10z" />
    <glyph glyph-name="uniF136" unicode="&#xf136;" horiz-adv-x="439" 
d="M439 192c0 -30 -6 -58 -18 -85s-26 -50 -46 -70s-43 -35 -70 -47s-56 -17 -86 -17c-33 0 -63 6 -93 20s-54 34 -75 59c-1 2 -2 4 -2 6s0 4 2 6l39 39c2 2 4 3 7 3s6 -1 7 -3c14 -18 31 -32 51 -42s41 -15 64 -15c20 0 39 3 57 11s34 19 47 32s23 28 31 46s12 37 12 57
s-4 39 -12 57s-18 33 -31 46s-29 24 -47 32s-37 11 -57 11c-19 0 -36 -3 -53 -10s-33 -16 -46 -29l39 -39c6 -6 7 -13 4 -20c-3 -8 -9 -11 -17 -11h-128c-5 0 -9 1 -13 5s-5 8 -5 13v128c0 8 3 14 11 17c7 3 14 2 20 -4l37 -37c20 19 44 34 70 45s53 15 81 15
c30 0 59 -5 86 -17s50 -27 70 -47s34 -43 46 -70s18 -55 18 -85v0z" />
  </font>
</defs></svg>
